<?xml version="1.0" encoding="UTF-8" standalone="no"?>
<!-- Created with Inkscape (http://www.inkscape.org/) -->

<svg
   xmlns:ns0="http://www.iki.fi/pav/software/textext/"
   xmlns:dc="http://purl.org/dc/elements/1.1/"
   xmlns:cc="http://creativecommons.org/ns#"
   xmlns:rdf="http://www.w3.org/1999/02/22-rdf-syntax-ns#"
   xmlns:svg="http://www.w3.org/2000/svg"
   xmlns="http://www.w3.org/2000/svg"
   xmlns:sodipodi="http://sodipodi.sourceforge.net/DTD/sodipodi-0.dtd"
   xmlns:inkscape="http://www.inkscape.org/namespaces/inkscape"
   height="76.280869mm"
   width="79.094009mm"
   viewBox="0 0 280.25436 270.28654"
   id="svg3657"
   version="1.1"
   inkscape:version="0.92.3 (2405546, 2018-03-11)"
   sodipodi:docname="ml-overview.svg">
  <sodipodi:namedview
     pagecolor="#ffffff"
     bordercolor="#666666"
     borderopacity="1"
     objecttolerance="10"
     gridtolerance="10"
     guidetolerance="10"
     inkscape:pageopacity="0"
     inkscape:pageshadow="2"
     inkscape:window-width="2521"
     inkscape:window-height="1440"
     id="namedview3661"
     showgrid="false"
     showguides="false"
     inkscape:zoom="2.1556983"
     inkscape:cx="68.50366"
     inkscape:cy="213.44166"
     inkscape:window-x="39"
     inkscape:window-y="0"
     inkscape:window-maximized="1"
     inkscape:current-layer="svg3657"
     fit-margin-top="0"
     fit-margin-left="0"
     fit-margin-right="0"
     fit-margin-bottom="0" />
  <defs
     id="defs3663" />
  <metadata
     id="metadata3659">
    <rdf:RDF>
      <cc:Work
         rdf:about="">
        <dc:format>image/svg+xml</dc:format>
        <dc:type
           rdf:resource="http://purl.org/dc/dcmitype/StillImage" />
        <dc:title />
      </cc:Work>
    </rdf:RDF>
  </metadata>
  <ellipse
     transform="matrix(0.08291134,0.99655693,-0.97250526,0.2328809,0,0)"
     id="path15196"
     style="fill:#cccccc;fill-opacity:1;stroke:#cccccc;stroke-width:0.40037081;stroke-miterlimit:4;stroke-dasharray:none"
     cx="115.46143"
     cy="-137.26474"
     rx="82.338043"
     ry="50.17057" />
  <ellipse
     transform="matrix(0.87174877,0.48995315,-0.35227748,0.9358956,0,0)"
     id="path15192"
     style="fill:#cccccc;fill-opacity:1;stroke:#cccccc;stroke-width:0.40037084;stroke-miterlimit:4;stroke-dasharray:none"
     cx="269.35352"
     cy="81.417488"
     rx="82.338043"
     ry="50.170574" />
  <ellipse
     ry="50.170574"
     rx="82.338043"
     cy="220.33173"
     cx="4.0041256"
     style="fill:#cccccc;fill-opacity:1;stroke:#cccccc;stroke-width:0.40037084;stroke-miterlimit:4;stroke-dasharray:none"
     id="ellipse3742"
     transform="matrix(-0.87174877,0.48995315,0.35227748,0.9358956,0,0)" />
  <g
     id="g4077"
     transform="matrix(1,0,0,-1,-137.83903,932.48007)"
     xml:space="preserve"
     stroke-miterlimit="10.433"
     font-style="normal"
     font-variant="normal"
     font-weight="normal"
     font-stretch="normal"
     font-size-adjust="none"
     letter-spacing="normal"
     word-spacing="normal"
     ns0:text="\\textbf{Unsupervised}\n\n\\textbf{Learning}"
     ns0:preamble="/home/adin/.config/inkscape/extensions/beamer_packages.tex"
     style="font-style:normal;font-variant:normal;font-weight:normal;font-stretch:normal;letter-spacing:normal;word-spacing:normal;text-anchor:start;fill:#000000;fill-opacity:1;fill-rule:evenodd;stroke:#000000;stroke-linecap:butt;stroke-linejoin:miter;stroke-miterlimit:10.43299961;stroke-dasharray:none;stroke-dashoffset:0;stroke-opacity:1"><path
       d="m 155.41,713.54 0,0.03 0,0.03 0,0.03 0,0.02 0,0.03 -0.01,0.02 0,0.03 0,0.02 -0.01,0.02 -0.01,0.02 0,0.02 -0.01,0.02 -0.01,0.02 -0.01,0.02 -0.01,0.01 -0.01,0.02 -0.02,0.01 -0.01,0.02 -0.02,0.01 -0.01,0.01 -0.02,0.01 -0.02,0.01 -0.02,0.01 -0.03,0.01 -0.02,0.01 -0.03,0 -0.03,0.01 -0.03,0 -0.01,0 -0.02,0 -0.02,0.01 -0.01,0 -0.02,0 -0.02,0 -0.02,0 -0.02,0 -0.39,0 c -0.38,0 -0.48,-0.13 -0.48,-0.48 l 0,-4.16 c 0,-0.97 -0.29,-1.62 -1.51,-1.62 -1.15,0 -1.46,0.59 -1.46,1.61 l 0,4.17 c 0,0.32 -0.07,0.48 -0.48,0.48 l -0.51,0 c -0.36,0 -0.48,-0.11 -0.48,-0.48 l 0,-4.13 c 0,-2.1 1.65,-2.5 2.92,-2.5 1.14,0 2.87,0.33 2.87,2.49 z"
       font-size-adjust="none"
       font-stretch="normal"
       font-style="normal"
       font-variant="normal"
       font-weight="normal"
       letter-spacing="normal"
       stroke-miterlimit="10.433"
       word-spacing="normal"
       style="font-style:normal;font-variant:normal;font-weight:normal;font-stretch:normal;letter-spacing:normal;word-spacing:normal;text-anchor:start;fill:#000000;fill-opacity:1;fill-rule:evenodd;stroke:#000000;stroke-width:0;stroke-linecap:butt;stroke-linejoin:miter;stroke-miterlimit:10.43299961;stroke-dasharray:none;stroke-dashoffset:0;stroke-opacity:1"
       id="path4079"
       inkscape:connector-curvature="0" /><path
       d="m 161.31,710.35 0,0.1 -0.01,0.09 0,0.09 -0.01,0.08 -0.01,0.08 -0.02,0.08 -0.02,0.07 -0.02,0.07 -0.02,0.07 -0.02,0.06 -0.03,0.06 -0.03,0.06 -0.04,0.05 -0.03,0.05 -0.04,0.05 -0.05,0.04 -0.04,0.04 -0.05,0.04 -0.05,0.04 -0.06,0.03 -0.06,0.03 -0.06,0.03 -0.06,0.02 -0.07,0.02 -0.07,0.02 -0.07,0.02 -0.08,0.01 -0.08,0.01 -0.09,0.01 -0.08,0.01 -0.09,0 -0.1,0 c -1.04,0 -1.49,-0.75 -1.62,-1.02 l -0.01,0 0,0.5 c 0,0.32 -0.07,0.47 -0.48,0.47 l -0.34,0 c -0.36,0 -0.48,-0.11 -0.48,-0.47 l 0,-3.66 c 0,-0.36 0.11,-0.48 0.48,-0.48 l 0.4,0 c 0.38,0 0.48,0.13 0.48,0.48 l 0,2.2 c 0,0.86 0.57,1.27 1.09,1.27 0.48,0 0.58,-0.23 0.58,-0.74 l 0,-2.73 c 0,-0.32 0.07,-0.48 0.48,-0.48 l 0.4,0 c 0.38,0 0.48,0.13 0.48,0.48 z"
       font-size-adjust="none"
       font-stretch="normal"
       font-style="normal"
       font-variant="normal"
       font-weight="normal"
       letter-spacing="normal"
       stroke-miterlimit="10.433"
       word-spacing="normal"
       style="font-style:normal;font-variant:normal;font-weight:normal;font-stretch:normal;letter-spacing:normal;word-spacing:normal;text-anchor:start;fill:#000000;fill-opacity:1;fill-rule:evenodd;stroke:#000000;stroke-width:0;stroke-linecap:butt;stroke-linejoin:miter;stroke-miterlimit:10.43299961;stroke-dasharray:none;stroke-dashoffset:0;stroke-opacity:1"
       id="path4081"
       inkscape:connector-curvature="0" /><path
       d="m 165.86,708.53 0,0.05 0,0.05 -0.01,0.05 0,0.04 -0.01,0.05 -0.01,0.05 -0.01,0.04 -0.01,0.04 -0.01,0.05 -0.01,0.04 -0.02,0.04 -0.01,0.03 -0.02,0.04 -0.02,0.04 -0.01,0.03 -0.02,0.04 -0.02,0.03 -0.02,0.03 -0.02,0.03 -0.02,0.03 -0.02,0.03 -0.02,0.02 -0.02,0.03 -0.02,0.02 -0.02,0.03 -0.02,0.02 -0.02,0.02 -0.02,0.02 -0.01,0.02 -0.02,0.02 -0.02,0.01 -0.02,0.02 c -0.4,0.36 -0.75,0.42 -1.16,0.5 -0.55,0.09 -0.95,0.17 -0.95,0.56 0,0.41 0.33,0.49 0.72,0.49 0.66,0 1.02,-0.25 1.28,-0.47 0.1,-0.1 0.12,-0.1 0.16,-0.1 0.1,0 0.12,0.09 0.13,0.13 0.02,0.08 0.12,0.64 0.12,0.69 0,0.16 -0.53,0.29 -0.64,0.33 -0.39,0.11 -0.71,0.12 -0.97,0.12 -0.45,0 -1.79,0 -1.79,-1.42 0,-0.48 0.22,-0.78 0.49,-1.02 0.35,-0.32 0.74,-0.39 1.31,-0.5 0.29,-0.05 0.79,-0.14 0.79,-0.57 0,-0.47 -0.38,-0.54 -0.77,-0.54 -0.44,0 -1,0.13 -1.47,0.69 -0.05,0.05 -0.08,0.07 -0.14,0.07 -0.1,0 -0.12,-0.08 -0.13,-0.14 -0.02,-0.14 -0.14,-0.71 -0.14,-0.81 0,-0.18 0.74,-0.41 0.75,-0.42 0.55,-0.16 0.96,-0.16 1.13,-0.16 0.5,0 1.76,0.03 1.76,1.51 z"
       font-size-adjust="none"
       font-stretch="normal"
       font-style="normal"
       font-variant="normal"
       font-weight="normal"
       letter-spacing="normal"
       stroke-miterlimit="10.433"
       word-spacing="normal"
       style="font-style:normal;font-variant:normal;font-weight:normal;font-stretch:normal;letter-spacing:normal;word-spacing:normal;text-anchor:start;fill:#000000;fill-opacity:1;fill-rule:evenodd;stroke:#000000;stroke-width:0;stroke-linecap:butt;stroke-linejoin:miter;stroke-miterlimit:10.43299961;stroke-dasharray:none;stroke-dashoffset:0;stroke-opacity:1"
       id="path4083"
       inkscape:connector-curvature="0" /><path
       d="m 171.1,711.2 0,0.03 0,0.03 0,0.02 0,0.03 -0.01,0.03 0,0.02 0,0.02 -0.01,0.03 0,0.02 -0.01,0.02 -0.01,0.02 0,0.02 -0.01,0.02 -0.01,0.01 -0.01,0.02 -0.02,0.02 -0.01,0.01 -0.01,0.01 -0.02,0.02 -0.02,0.01 -0.02,0.01 -0.02,0.01 -0.02,0.01 -0.02,0.01 -0.03,0 -0.02,0.01 -0.03,0 -0.03,0.01 -0.02,0 -0.01,0 -0.02,0 -0.02,0 -0.01,0 -0.02,0 -0.02,0 -0.02,0 -0.4,0 c -0.38,0 -0.48,-0.12 -0.48,-0.47 l 0,-2.36 c 0,-0.65 -0.35,-1.22 -1.05,-1.22 -0.56,0 -0.62,0.14 -0.62,0.67 l 0,2.91 c 0,0.32 -0.07,0.47 -0.48,0.47 l -0.4,0 c -0.36,0 -0.48,-0.1 -0.48,-0.47 l 0,-2.82 c 0,-1.07 0.58,-1.36 1.62,-1.36 0.27,0 0.97,0 1.44,0.84 l 0,-0.26 c 0,-0.32 0.07,-0.48 0.48,-0.48 l 0.37,0 c 0.38,0 0.48,0.13 0.48,0.48 z"
       font-size-adjust="none"
       font-stretch="normal"
       font-style="normal"
       font-variant="normal"
       font-weight="normal"
       letter-spacing="normal"
       stroke-miterlimit="10.433"
       word-spacing="normal"
       style="font-style:normal;font-variant:normal;font-weight:normal;font-stretch:normal;letter-spacing:normal;word-spacing:normal;text-anchor:start;fill:#000000;fill-opacity:1;fill-rule:evenodd;stroke:#000000;stroke-width:0;stroke-linecap:butt;stroke-linejoin:miter;stroke-miterlimit:10.43299961;stroke-dasharray:none;stroke-dashoffset:0;stroke-opacity:1"
       id="path4085"
       inkscape:connector-curvature="0" /><path
       d="m 173.67,707.51 0.24,0.39 c -0.24,0.17 -0.24,0.22 -0.24,0.4 l 0,2.38 c 0.11,0.1 0.44,0.33 0.87,0.33 1.01,0 1.02,-1.17 1.02,-1.61 0,-0.4 0,-1.67 -1.12,-1.67 -0.23,0 -0.41,0.08 -0.53,0.17 l -0.24,-0.39 c 0.45,-0.49 0.99,-0.49 1.13,-0.49 2.12,0 2.12,1.9 2.12,2.4 0,0.49 0,2.36 -1.81,2.36 -0.58,0 -1.11,-0.23 -1.47,-0.57 0,0.37 -0.14,0.46 -0.48,0.46 l -0.37,0 c -0.36,0 -0.48,-0.1 -0.48,-0.47 l 0,-5.53 c 0,-0.35 0.11,-0.47 0.48,-0.47 l 0.4,0 c 0.38,0 0.48,0.13 0.48,0.47 z"
       font-size-adjust="none"
       font-stretch="normal"
       font-style="normal"
       font-variant="normal"
       font-weight="normal"
       letter-spacing="normal"
       stroke-miterlimit="10.433"
       word-spacing="normal"
       style="font-style:normal;font-variant:normal;font-weight:normal;font-stretch:normal;letter-spacing:normal;word-spacing:normal;text-anchor:start;fill:#000000;fill-opacity:1;fill-rule:evenodd;stroke:#000000;stroke-width:0;stroke-linecap:butt;stroke-linejoin:miter;stroke-miterlimit:10.43299961;stroke-dasharray:none;stroke-dashoffset:0;stroke-opacity:1"
       id="path4087"
       inkscape:connector-curvature="0" /><path
       d="m 181.9,709.25 0.04,0 0.05,0 0.02,0 0.02,0 0.02,0.01 0.02,0 0.02,0 0.02,0.01 0.02,0 0.02,0.01 0.02,0 0.02,0.01 0.02,0.01 0.02,0.01 0.01,0.01 0.02,0.02 0.01,0.01 0.02,0.02 0.01,0.01 0.01,0.01 0,0.01 0.01,0.01 0.01,0.02 0,0.01 0.01,0.01 0,0.01 0.01,0.01 0,0.02 0,0.01 0.01,0.01 0,0.02 0,0.01 0.01,0.02 0,0.02 0,0.01 0,0.02 0.01,0.02 0,0.02 0,0.02 0,0.02 0,0.02 c 0,1.28 -0.6,2.13 -2.09,2.13 -1.59,0 -2.38,-0.89 -2.38,-2.4 0,-1.63 0.95,-2.42 2.52,-2.42 0.37,0 0.94,0.05 1.6,0.37 0.22,0.11 0.29,0.14 0.29,0.26 0,0.07 -0.03,0.36 -0.04,0.44 -0.04,0.31 -0.05,0.32 -0.14,0.32 -0.04,0 -0.06,0 -0.17,-0.1 -0.59,-0.51 -1.19,-0.58 -1.51,-0.58 -1.12,0 -1.24,0.88 -1.27,1.52 l 0.01,0.53 c 0.03,0.6 0.23,1.35 1.09,1.35 0.8,0 0.95,-0.58 0.98,-1.35 l -2.07,0 -0.01,-0.53 z"
       font-size-adjust="none"
       font-stretch="normal"
       font-style="normal"
       font-variant="normal"
       font-weight="normal"
       letter-spacing="normal"
       stroke-miterlimit="10.433"
       word-spacing="normal"
       style="font-style:normal;font-variant:normal;font-weight:normal;font-stretch:normal;letter-spacing:normal;word-spacing:normal;text-anchor:start;fill:#000000;fill-opacity:1;fill-rule:evenodd;stroke:#000000;stroke-width:0;stroke-linecap:butt;stroke-linejoin:miter;stroke-miterlimit:10.43299961;stroke-dasharray:none;stroke-dashoffset:0;stroke-opacity:1"
       id="path4089"
       inkscape:connector-curvature="0" /><path
       d="m 184.63,709.41 0,0.09 0.01,0.08 0.01,0.08 0.01,0.08 0.02,0.07 0.03,0.07 0.02,0.07 0.03,0.07 0.03,0.06 0.04,0.06 0.04,0.05 0.04,0.06 0.05,0.05 0.04,0.05 0.05,0.04 0.05,0.04 0.05,0.04 0.06,0.04 0.05,0.04 0.06,0.03 0.06,0.03 0.06,0.03 0.06,0.02 0.06,0.02 0.06,0.02 0.06,0.02 0.06,0.02 0.06,0.01 0.06,0.01 0.07,0.01 0.06,0.01 0.05,0 c 0.18,0.01 0.2,0.01 0.2,0.27 l 0,0.47 c 0,0.19 0,0.26 -0.17,0.26 -0.28,0 -1.01,-0.1 -1.48,-1.17 l -0.01,0 0,0.65 c 0,0.32 -0.07,0.47 -0.48,0.47 l -0.32,0 c -0.36,0 -0.48,-0.11 -0.48,-0.47 l 0,-3.66 c 0,-0.36 0.11,-0.48 0.48,-0.48 l 0.37,0 c 0.38,0 0.48,0.13 0.48,0.48 z"
       font-size-adjust="none"
       font-stretch="normal"
       font-style="normal"
       font-variant="normal"
       font-weight="normal"
       letter-spacing="normal"
       stroke-miterlimit="10.433"
       word-spacing="normal"
       style="font-style:normal;font-variant:normal;font-weight:normal;font-stretch:normal;letter-spacing:normal;word-spacing:normal;text-anchor:start;fill:#000000;fill-opacity:1;fill-rule:evenodd;stroke:#000000;stroke-width:0;stroke-linecap:butt;stroke-linejoin:miter;stroke-miterlimit:10.43299961;stroke-dasharray:none;stroke-dashoffset:0;stroke-opacity:1"
       id="path4091"
       inkscape:connector-curvature="0" /><path
       d="m 191.07,711.21 0,0 0,0.01 0.01,0.01 0,0 0,0.01 0,0 0,0.01 0.01,0 0,0.01 0,0 0,0.01 0,0 0,0.01 0.01,0 0,0.01 0,0.01 0,0.01 0,0 0.01,0.01 0,0.01 0,0 0,0.01 0,0 0,0.01 0,0 0.01,0.01 0,0 0,0 0,0.01 0,0 0,0 0,0.01 0,0 0,0.01 0,0 0,0.01 c 0,0.27 -0.25,0.27 -0.4,0.27 l -0.21,0 c -0.42,0 -0.53,-0.14 -0.62,-0.42 l -0.99,-3 -0.98,3 c -0.07,0.21 -0.14,0.42 -0.62,0.42 l -0.24,0 c -0.15,0 -0.4,0 -0.4,-0.27 0,-0.03 0,-0.05 0.05,-0.19 l 1.19,-3.67 c 0.14,-0.42 0.45,-0.42 0.63,-0.42 l 0.72,0 c 0.18,0 0.49,0 0.63,0.42 z"
       font-size-adjust="none"
       font-stretch="normal"
       font-style="normal"
       font-variant="normal"
       font-weight="normal"
       letter-spacing="normal"
       stroke-miterlimit="10.433"
       word-spacing="normal"
       style="font-style:normal;font-variant:normal;font-weight:normal;font-stretch:normal;letter-spacing:normal;word-spacing:normal;text-anchor:start;fill:#000000;fill-opacity:1;fill-rule:evenodd;stroke:#000000;stroke-width:0;stroke-linecap:butt;stroke-linejoin:miter;stroke-miterlimit:10.43299961;stroke-dasharray:none;stroke-dashoffset:0;stroke-opacity:1"
       id="path4093"
       inkscape:connector-curvature="0" /><path
       d="m 192.4,714.03 -0.03,0 -0.03,0 -0.02,0 -0.03,0 -0.03,-0.01 -0.02,0 -0.03,0 -0.02,-0.01 -0.02,0 -0.02,-0.01 -0.02,0 -0.02,-0.01 -0.02,-0.01 -0.02,-0.01 -0.01,-0.01 -0.02,-0.01 -0.01,-0.01 -0.02,-0.02 -0.01,-0.01 -0.01,-0.02 -0.01,-0.02 -0.01,-0.02 -0.01,-0.02 -0.01,-0.02 -0.01,-0.02 0,-0.03 -0.01,-0.03 0,-0.01 0,-0.01 0,-0.02 0,-0.01 -0.01,-0.02 0,-0.02 0,-0.01 0,-0.02 0,-0.02 0,-0.02 0,-0.46 c 0,-0.31 0.1,-0.44 0.47,-0.44 l 0.52,0 c 0.48,0 0.48,0.21 0.48,0.67 0,0.48 0,0.69 -0.48,0.69 z"
       font-size-adjust="none"
       font-stretch="normal"
       font-style="normal"
       font-variant="normal"
       font-weight="normal"
       letter-spacing="normal"
       stroke-miterlimit="10.433"
       word-spacing="normal"
       style="font-style:normal;font-variant:normal;font-weight:normal;font-stretch:normal;letter-spacing:normal;word-spacing:normal;text-anchor:start;fill:#000000;fill-opacity:1;fill-rule:evenodd;stroke:#000000;stroke-width:0;stroke-linecap:butt;stroke-linejoin:miter;stroke-miterlimit:10.43299961;stroke-dasharray:none;stroke-dashoffset:0;stroke-opacity:1"
       id="path4095"
       inkscape:connector-curvature="0" /><path
       d="m 193.32,711.2 0,0.03 0,0.03 0,0.02 -0.01,0.03 0,0.03 0,0.02 0,0.02 -0.01,0.03 0,0.02 -0.01,0.02 -0.01,0.02 -0.01,0.02 0,0.02 -0.01,0.01 -0.02,0.02 -0.01,0.02 -0.01,0.01 -0.02,0.01 -0.01,0.02 -0.02,0.01 -0.02,0.01 -0.02,0.01 -0.02,0.01 -0.02,0.01 -0.03,0 -0.02,0.01 -0.03,0 -0.03,0.01 -0.02,0 -0.01,0 -0.02,0 -0.02,0 -0.01,0 -0.02,0 -0.02,0 -0.02,0 -0.37,0 c -0.36,0 -0.48,-0.1 -0.48,-0.47 l 0,-3.6 c 0,-0.36 0.11,-0.48 0.48,-0.48 l 0.37,0 c 0.38,0 0.48,0.13 0.48,0.48 z"
       font-size-adjust="none"
       font-stretch="normal"
       font-style="normal"
       font-variant="normal"
       font-weight="normal"
       letter-spacing="normal"
       stroke-miterlimit="10.433"
       word-spacing="normal"
       style="font-style:normal;font-variant:normal;font-weight:normal;font-stretch:normal;letter-spacing:normal;word-spacing:normal;text-anchor:start;fill:#000000;fill-opacity:1;fill-rule:evenodd;stroke:#000000;stroke-width:0;stroke-linecap:butt;stroke-linejoin:miter;stroke-miterlimit:10.43299961;stroke-dasharray:none;stroke-dashoffset:0;stroke-opacity:1"
       id="path4097"
       inkscape:connector-curvature="0" /><path
       d="m 197.88,708.53 0,0.05 0,0.05 -0.01,0.05 0,0.04 -0.01,0.05 -0.01,0.05 -0.01,0.04 -0.01,0.04 -0.01,0.05 -0.02,0.04 -0.01,0.04 -0.02,0.03 -0.01,0.04 -0.02,0.04 -0.02,0.03 -0.01,0.04 -0.02,0.03 -0.02,0.03 -0.02,0.03 -0.02,0.03 -0.02,0.03 -0.02,0.02 -0.02,0.03 -0.02,0.02 -0.02,0.03 -0.02,0.02 -0.02,0.02 -0.02,0.02 -0.02,0.02 -0.01,0.02 -0.02,0.01 -0.02,0.02 c -0.4,0.36 -0.75,0.42 -1.17,0.5 -0.55,0.09 -0.94,0.17 -0.94,0.56 0,0.41 0.33,0.49 0.71,0.49 0.67,0 1.03,-0.25 1.29,-0.47 0.1,-0.1 0.12,-0.1 0.16,-0.1 0.1,0 0.12,0.09 0.13,0.13 0.02,0.08 0.12,0.64 0.12,0.69 0,0.16 -0.53,0.29 -0.64,0.33 -0.4,0.11 -0.72,0.12 -0.98,0.12 -0.45,0 -1.78,0 -1.78,-1.42 0,-0.48 0.22,-0.78 0.49,-1.02 0.35,-0.32 0.74,-0.39 1.3,-0.5 0.29,-0.05 0.8,-0.14 0.8,-0.57 0,-0.47 -0.39,-0.54 -0.78,-0.54 -0.43,0 -0.99,0.13 -1.46,0.69 -0.05,0.05 -0.08,0.07 -0.14,0.07 -0.1,0 -0.12,-0.08 -0.13,-0.14 -0.02,-0.14 -0.14,-0.71 -0.14,-0.81 0,-0.18 0.74,-0.41 0.75,-0.42 0.55,-0.16 0.95,-0.16 1.12,-0.16 0.51,0 1.77,0.03 1.77,1.51 z"
       font-size-adjust="none"
       font-stretch="normal"
       font-style="normal"
       font-variant="normal"
       font-weight="normal"
       letter-spacing="normal"
       stroke-miterlimit="10.433"
       word-spacing="normal"
       style="font-style:normal;font-variant:normal;font-weight:normal;font-stretch:normal;letter-spacing:normal;word-spacing:normal;text-anchor:start;fill:#000000;fill-opacity:1;fill-rule:evenodd;stroke:#000000;stroke-width:0;stroke-linecap:butt;stroke-linejoin:miter;stroke-miterlimit:10.43299961;stroke-dasharray:none;stroke-dashoffset:0;stroke-opacity:1"
       id="path4099"
       inkscape:connector-curvature="0" /><path
       d="m 202.43,709.25 0.04,0 0.05,0 0.02,0 0.02,0 0.02,0.01 0.02,0 0.02,0 0.02,0.01 0.02,0 0.02,0.01 0.02,0 0.02,0.01 0.02,0.01 0.01,0.01 0.02,0.01 0.02,0.02 0.01,0.01 0.02,0.02 0.01,0.01 0.01,0.01 0,0.01 0.01,0.01 0,0.02 0.01,0.01 0.01,0.01 0,0.01 0.01,0.01 0,0.02 0,0.01 0.01,0.01 0,0.02 0,0.01 0.01,0.02 0,0.02 0,0.01 0,0.02 0.01,0.02 0,0.02 0,0.02 0,0.02 0,0.02 c 0,1.28 -0.6,2.13 -2.09,2.13 -1.59,0 -2.38,-0.89 -2.38,-2.4 0,-1.63 0.95,-2.42 2.51,-2.42 0.38,0 0.95,0.05 1.61,0.37 0.22,0.11 0.29,0.14 0.29,0.26 0,0.07 -0.03,0.36 -0.04,0.44 -0.04,0.31 -0.05,0.32 -0.14,0.32 -0.04,0 -0.06,0 -0.17,-0.1 -0.59,-0.51 -1.19,-0.58 -1.51,-0.58 -1.12,0 -1.24,0.88 -1.27,1.52 l 0.01,0.53 c 0.03,0.6 0.23,1.35 1.09,1.35 0.8,0 0.95,-0.58 0.98,-1.35 l -2.07,0 -0.01,-0.53 z"
       font-size-adjust="none"
       font-stretch="normal"
       font-style="normal"
       font-variant="normal"
       font-weight="normal"
       letter-spacing="normal"
       stroke-miterlimit="10.433"
       word-spacing="normal"
       style="font-style:normal;font-variant:normal;font-weight:normal;font-stretch:normal;letter-spacing:normal;word-spacing:normal;text-anchor:start;fill:#000000;fill-opacity:1;fill-rule:evenodd;stroke:#000000;stroke-width:0;stroke-linecap:butt;stroke-linejoin:miter;stroke-miterlimit:10.43299961;stroke-dasharray:none;stroke-dashoffset:0;stroke-opacity:1"
       id="path4101"
       inkscape:connector-curvature="0" /><path
       d="m 208.2,713.54 0,0.03 0,0.03 0,0.03 0,0.02 -0.01,0.03 0,0.02 0,0.03 -0.01,0.02 0,0.02 -0.01,0.02 -0.01,0.02 0,0.02 -0.01,0.02 -0.01,0.02 -0.01,0.01 -0.02,0.02 -0.01,0.01 -0.02,0.02 -0.01,0.01 -0.02,0.01 -0.02,0.01 -0.02,0.01 -0.02,0.01 -0.02,0.01 -0.03,0.01 -0.02,0 -0.03,0.01 -0.03,0 -0.02,0 -0.01,0 -0.02,0.01 -0.02,0 -0.01,0 -0.02,0 -0.02,0 -0.02,0 -0.37,0 c -0.38,0 -0.48,-0.13 -0.48,-0.48 l 0,-2.25 c -0.45,0.42 -0.94,0.49 -1.25,0.49 -2.03,0 -2.03,-1.9 -2.03,-2.39 0,-0.46 0,-2.37 1.98,-2.37 0.42,0 0.84,0.12 1.27,0.57 l -0.29,0.32 c -0.25,-0.16 -0.48,-0.18 -0.59,-0.18 -1.01,0 -1.01,0.92 -1.01,1.66 0,0.75 0,1.68 1.12,1.68 0.28,0 0.55,-0.1 0.77,-0.31 l 0,-2.39 c 0,-0.17 0,-0.26 -0.29,-0.46 l 0.29,-0.32 c 0,-0.37 0.14,-0.47 0.48,-0.47 l 0.4,0 c 0.38,0 0.48,0.13 0.48,0.48 z"
       font-size-adjust="none"
       font-stretch="normal"
       font-style="normal"
       font-variant="normal"
       font-weight="normal"
       letter-spacing="normal"
       stroke-miterlimit="10.433"
       word-spacing="normal"
       style="font-style:normal;font-variant:normal;font-weight:normal;font-stretch:normal;letter-spacing:normal;word-spacing:normal;text-anchor:start;fill:#000000;fill-opacity:1;fill-rule:evenodd;stroke:#000000;stroke-width:0;stroke-linecap:butt;stroke-linejoin:miter;stroke-miterlimit:10.43299961;stroke-dasharray:none;stroke-dashoffset:0;stroke-opacity:1"
       id="path4103"
       inkscape:connector-curvature="0" /><path
       d="m 151.09,696.17 0,5.42 c 0,0.32 -0.07,0.47 -0.48,0.47 l -0.51,0 c -0.36,0 -0.48,-0.1 -0.48,-0.47 l 0,-5.94 c 0,-0.36 0.11,-0.48 0.48,-0.48 l 3.46,0 c 0.38,0 0.48,0.13 0.48,0.48 l 0,0.09 c 0,0.23 -0.01,0.47 -0.47,0.47 z"
       font-size-adjust="none"
       font-stretch="normal"
       font-style="normal"
       font-variant="normal"
       font-weight="normal"
       letter-spacing="normal"
       stroke-miterlimit="10.433"
       word-spacing="normal"
       style="font-style:normal;font-variant:normal;font-weight:normal;font-stretch:normal;letter-spacing:normal;word-spacing:normal;text-anchor:start;fill:#000000;fill-opacity:1;fill-rule:evenodd;stroke:#000000;stroke-width:0;stroke-linecap:butt;stroke-linejoin:miter;stroke-miterlimit:10.43299961;stroke-dasharray:none;stroke-dashoffset:0;stroke-opacity:1"
       id="path4105"
       inkscape:connector-curvature="0" /><path
       d="m 158.79,697.3 0.05,0 0.04,0 0.02,0 0.02,0 0.02,0 0.03,0 0.02,0.01 0.02,0 0.02,0.01 0.02,0 0.02,0.01 0.01,0.01 0.02,0.01 0.02,0.01 0.02,0.01 0.01,0.01 0.02,0.02 0.01,0.01 0.02,0.02 0,0.01 0.01,0.01 0,0.01 0.01,0.01 0.01,0.01 0,0.01 0.01,0.02 0,0.01 0,0.01 0.01,0.01 0,0.02 0.01,0.01 0,0.02 0,0.02 0,0.01 0.01,0.02 0,0.02 0,0.01 0,0.02 0,0.02 0,0.02 0,0.02 c 0,1.28 -0.59,2.14 -2.08,2.14 -1.6,0 -2.39,-0.9 -2.39,-2.41 0,-1.63 0.95,-2.42 2.52,-2.42 0.38,0 0.95,0.05 1.6,0.38 0.22,0.11 0.29,0.14 0.29,0.26 0,0.07 -0.03,0.35 -0.04,0.43 -0.04,0.31 -0.05,0.32 -0.14,0.32 -0.04,0 -0.06,0 -0.17,-0.1 -0.58,-0.51 -1.18,-0.57 -1.5,-0.57 -1.13,0 -1.25,0.88 -1.28,1.52 l 0.01,0.52 c 0.03,0.61 0.23,1.35 1.1,1.35 0.8,0 0.95,-0.57 0.98,-1.35 l -2.08,0 -0.01,-0.52 z"
       font-size-adjust="none"
       font-stretch="normal"
       font-style="normal"
       font-variant="normal"
       font-weight="normal"
       letter-spacing="normal"
       stroke-miterlimit="10.433"
       word-spacing="normal"
       style="font-style:normal;font-variant:normal;font-weight:normal;font-stretch:normal;letter-spacing:normal;word-spacing:normal;text-anchor:start;fill:#000000;fill-opacity:1;fill-rule:evenodd;stroke:#000000;stroke-width:0;stroke-linecap:butt;stroke-linejoin:miter;stroke-miterlimit:10.43299961;stroke-dasharray:none;stroke-dashoffset:0;stroke-opacity:1"
       id="path4107"
       inkscape:connector-curvature="0" /><path
       d="m 164.21,698.31 0,0.07 0,0.07 0,0.07 -0.01,0.07 -0.01,0.06 -0.01,0.06 -0.02,0.06 -0.01,0.06 -0.02,0.05 -0.02,0.06 -0.02,0.05 -0.02,0.05 -0.02,0.05 -0.03,0.04 -0.02,0.05 -0.03,0.04 -0.03,0.04 -0.03,0.04 -0.03,0.04 -0.03,0.03 -0.07,0.07 -0.07,0.06 -0.08,0.05 -0.07,0.05 -0.08,0.05 -0.09,0.04 -0.08,0.03 -0.08,0.03 -0.09,0.03 -0.08,0.02 -0.09,0.02 -0.08,0.02 -0.08,0.01 -0.08,0.01 -0.08,0.01 -0.08,0.01 -0.07,0 -0.07,0.01 -0.06,0 -0.06,0 -0.06,0 -0.05,0 c -0.47,0 -0.97,-0.04 -1.63,-0.32 -0.21,-0.09 -0.26,-0.12 -0.26,-0.23 0,-0.07 0.06,-0.64 0.07,-0.72 0.01,-0.06 0.06,-0.11 0.13,-0.11 0.04,0 0.08,0.03 0.11,0.06 0.42,0.44 0.92,0.66 1.54,0.66 0.54,0 0.7,-0.32 0.7,-0.91 l 0,-0.35 0,-0.41 0,-0.86 c 0,-0.92 -0.95,-0.92 -0.98,-0.92 -0.42,0 -0.69,0.35 -0.69,0.73 0,0.97 1.39,1.04 1.67,1.05 l 0,0.41 c -0.35,0 -2.96,-0.02 -2.96,-1.48 0,-0.69 0.56,-1.43 1.43,-1.43 0.34,0 1.09,0.1 1.56,0.78 l 0,-0.19 c 0,-0.32 0.07,-0.48 0.48,-0.48 l 0.37,0 c 0.38,0 0.47,0.13 0.47,0.48 z"
       font-size-adjust="none"
       font-stretch="normal"
       font-style="normal"
       font-variant="normal"
       font-weight="normal"
       letter-spacing="normal"
       stroke-miterlimit="10.433"
       word-spacing="normal"
       style="font-style:normal;font-variant:normal;font-weight:normal;font-stretch:normal;letter-spacing:normal;word-spacing:normal;text-anchor:start;fill:#000000;fill-opacity:1;fill-rule:evenodd;stroke:#000000;stroke-width:0;stroke-linecap:butt;stroke-linejoin:miter;stroke-miterlimit:10.43299961;stroke-dasharray:none;stroke-dashoffset:0;stroke-opacity:1"
       id="path4109"
       inkscape:connector-curvature="0" /><path
       d="m 166.44,697.46 0.01,0.08 0,0.09 0.01,0.08 0.02,0.07 0.02,0.08 0.02,0.07 0.03,0.07 0.03,0.06 0.03,0.06 0.04,0.06 0.03,0.06 0.05,0.05 0.04,0.05 0.05,0.05 0.05,0.05 0.05,0.04 0.05,0.04 0.05,0.04 0.06,0.03 0.06,0.03 0.05,0.03 0.06,0.03 0.06,0.03 0.06,0.02 0.06,0.02 0.07,0.02 0.06,0.01 0.06,0.01 0.06,0.02 0.06,0 0.06,0.01 0.06,0.01 c 0.18,0.01 0.2,0.01 0.2,0.26 l 0,0.47 c 0,0.2 0,0.27 -0.18,0.27 -0.28,0 -1.01,-0.1 -1.48,-1.17 l -0.01,0 0,0.64 c 0,0.32 -0.07,0.48 -0.47,0.48 l -0.32,0 c -0.36,0 -0.48,-0.11 -0.48,-0.48 l 0,-3.65 c 0,-0.36 0.11,-0.48 0.48,-0.48 l 0.37,0 c 0.37,0 0.47,0.13 0.47,0.48 z"
       font-size-adjust="none"
       font-stretch="normal"
       font-style="normal"
       font-variant="normal"
       font-weight="normal"
       letter-spacing="normal"
       stroke-miterlimit="10.433"
       word-spacing="normal"
       style="font-style:normal;font-variant:normal;font-weight:normal;font-stretch:normal;letter-spacing:normal;word-spacing:normal;text-anchor:start;fill:#000000;fill-opacity:1;fill-rule:evenodd;stroke:#000000;stroke-width:0;stroke-linecap:butt;stroke-linejoin:miter;stroke-miterlimit:10.43299961;stroke-dasharray:none;stroke-dashoffset:0;stroke-opacity:1"
       id="path4111"
       inkscape:connector-curvature="0" /><path
       d="m 173.2,698.4 0,0.09 0,0.09 -0.01,0.09 -0.01,0.08 -0.01,0.08 -0.01,0.08 -0.02,0.07 -0.02,0.07 -0.02,0.07 -0.03,0.06 -0.03,0.06 -0.03,0.06 -0.03,0.05 -0.04,0.06 -0.04,0.04 -0.04,0.05 -0.05,0.04 -0.05,0.04 -0.05,0.03 -0.05,0.04 -0.06,0.03 -0.06,0.02 -0.07,0.03 -0.07,0.02 -0.07,0.02 -0.07,0.01 -0.08,0.02 -0.08,0.01 -0.08,0.01 -0.09,0 -0.09,0.01 -0.09,0 c -1.05,0 -1.5,-0.76 -1.63,-1.02 l -0.01,0 0,0.49 c 0,0.32 -0.07,0.48 -0.48,0.48 l -0.34,0 c -0.35,0 -0.47,-0.11 -0.47,-0.48 l 0,-3.65 c 0,-0.36 0.11,-0.48 0.47,-0.48 l 0.4,0 c 0.38,0 0.48,0.13 0.48,0.48 l 0,2.19 c 0,0.87 0.58,1.27 1.1,1.27 0.48,0 0.58,-0.22 0.58,-0.73 l 0,-2.73 c 0,-0.32 0.07,-0.48 0.48,-0.48 l 0.4,0 c 0.37,0 0.47,0.13 0.47,0.48 z"
       font-size-adjust="none"
       font-stretch="normal"
       font-style="normal"
       font-variant="normal"
       font-weight="normal"
       letter-spacing="normal"
       stroke-miterlimit="10.433"
       word-spacing="normal"
       style="font-style:normal;font-variant:normal;font-weight:normal;font-stretch:normal;letter-spacing:normal;word-spacing:normal;text-anchor:start;fill:#000000;fill-opacity:1;fill-rule:evenodd;stroke:#000000;stroke-width:0;stroke-linecap:butt;stroke-linejoin:miter;stroke-miterlimit:10.43299961;stroke-dasharray:none;stroke-dashoffset:0;stroke-opacity:1"
       id="path4113"
       inkscape:connector-curvature="0" /><path
       d="m 174.82,702.07 -0.02,0 -0.03,0 -0.03,0 -0.03,0 -0.02,0 -0.03,0 -0.02,-0.01 -0.02,0 -0.03,-0.01 -0.02,0 -0.02,-0.01 -0.02,-0.01 -0.01,0 -0.02,-0.01 -0.02,-0.01 -0.01,-0.02 -0.02,-0.01 -0.01,-0.01 -0.01,-0.02 -0.02,-0.01 -0.01,-0.02 -0.01,-0.02 -0.01,-0.02 0,-0.02 -0.01,-0.03 -0.01,-0.02 0,-0.03 0,-0.01 -0.01,-0.02 0,-0.01 0,-0.02 0,-0.02 0,-0.01 0,-0.02 0,-0.02 0,-0.01 0,-0.02 0,-0.46 c 0,-0.32 0.1,-0.45 0.47,-0.45 l 0.51,0 c 0.48,0 0.48,0.21 0.48,0.68 0,0.47 0,0.68 -0.48,0.68 z"
       font-size-adjust="none"
       font-stretch="normal"
       font-style="normal"
       font-variant="normal"
       font-weight="normal"
       letter-spacing="normal"
       stroke-miterlimit="10.433"
       word-spacing="normal"
       style="font-style:normal;font-variant:normal;font-weight:normal;font-stretch:normal;letter-spacing:normal;word-spacing:normal;text-anchor:start;fill:#000000;fill-opacity:1;fill-rule:evenodd;stroke:#000000;stroke-width:0;stroke-linecap:butt;stroke-linejoin:miter;stroke-miterlimit:10.43299961;stroke-dasharray:none;stroke-dashoffset:0;stroke-opacity:1"
       id="path4115"
       inkscape:connector-curvature="0" /><path
       d="m 175.74,699.24 0,0.03 0,0.03 0,0.03 0,0.02 0,0.03 -0.01,0.03 0,0.02 -0.01,0.02 0,0.02 -0.01,0.02 0,0.02 -0.01,0.02 -0.01,0.02 -0.01,0.02 -0.01,0.02 -0.01,0.01 -0.02,0.02 -0.01,0.01 -0.02,0.01 -0.02,0.01 -0.01,0.01 -0.02,0.01 -0.03,0.01 -0.02,0.01 -0.02,0.01 -0.03,0 -0.03,0.01 -0.03,0 -0.01,0 -0.02,0.01 -0.02,0 -0.01,0 -0.02,0 -0.02,0 -0.02,0 -0.02,0 -0.36,0 c -0.36,0 -0.48,-0.11 -0.48,-0.48 l 0,-3.59 c 0,-0.36 0.11,-0.48 0.48,-0.48 l 0.36,0 c 0.38,0 0.48,0.13 0.48,0.48 z"
       font-size-adjust="none"
       font-stretch="normal"
       font-style="normal"
       font-variant="normal"
       font-weight="normal"
       letter-spacing="normal"
       stroke-miterlimit="10.433"
       word-spacing="normal"
       style="font-style:normal;font-variant:normal;font-weight:normal;font-stretch:normal;letter-spacing:normal;word-spacing:normal;text-anchor:start;fill:#000000;fill-opacity:1;fill-rule:evenodd;stroke:#000000;stroke-width:0;stroke-linecap:butt;stroke-linejoin:miter;stroke-miterlimit:10.43299961;stroke-dasharray:none;stroke-dashoffset:0;stroke-opacity:1"
       id="path4117"
       inkscape:connector-curvature="0" /><path
       d="m 181.34,698.4 0,0.09 -0.01,0.09 0,0.09 -0.01,0.08 -0.01,0.08 -0.02,0.08 -0.01,0.07 -0.02,0.07 -0.03,0.07 -0.02,0.06 -0.03,0.06 -0.03,0.06 -0.04,0.05 -0.03,0.06 -0.04,0.04 -0.05,0.05 -0.04,0.04 -0.05,0.04 -0.05,0.03 -0.06,0.04 -0.06,0.03 -0.06,0.02 -0.06,0.03 -0.07,0.02 -0.07,0.02 -0.07,0.01 -0.08,0.02 -0.08,0.01 -0.09,0.01 -0.08,0 -0.09,0.01 -0.1,0 c -1.04,0 -1.49,-0.76 -1.62,-1.02 l -0.01,0 0,0.49 c 0,0.32 -0.07,0.48 -0.48,0.48 l -0.34,0 c -0.36,0 -0.48,-0.11 -0.48,-0.48 l 0,-3.65 c 0,-0.36 0.11,-0.48 0.48,-0.48 l 0.4,0 c 0.38,0 0.48,0.13 0.48,0.48 l 0,2.19 c 0,0.87 0.58,1.27 1.1,1.27 0.47,0 0.57,-0.22 0.57,-0.73 l 0,-2.73 c 0,-0.32 0.07,-0.48 0.48,-0.48 l 0.4,0 c 0.38,0 0.48,0.13 0.48,0.48 z"
       font-size-adjust="none"
       font-stretch="normal"
       font-style="normal"
       font-variant="normal"
       font-weight="normal"
       letter-spacing="normal"
       stroke-miterlimit="10.433"
       word-spacing="normal"
       style="font-style:normal;font-variant:normal;font-weight:normal;font-stretch:normal;letter-spacing:normal;word-spacing:normal;text-anchor:start;fill:#000000;fill-opacity:1;fill-rule:evenodd;stroke:#000000;stroke-width:0;stroke-linecap:butt;stroke-linejoin:miter;stroke-miterlimit:10.43299961;stroke-dasharray:none;stroke-dashoffset:0;stroke-opacity:1"
       id="path4119"
       inkscape:connector-curvature="0" /><path
       d="m 183.94,696.08 -0.03,0 -0.04,0 -0.03,0 -0.03,0 -0.02,0 -0.03,0 -0.03,0.01 -0.02,0 -0.03,0 -0.02,0 -0.02,0 -0.02,0 -0.02,0 -0.02,0 -0.02,0.01 -0.02,0 -0.02,0 -0.02,0.01 -0.01,0 -0.02,0 -0.02,0.01 -0.01,0 -0.02,0.01 -0.01,0 -0.02,0.01 -0.01,0.01 -0.01,0.01 -0.02,0 -0.01,0.01 -0.01,0.01 -0.02,0.01 -0.01,0.01 c -0.04,0.04 -0.21,0.19 -0.21,0.45 0,0.07 0.01,0.09 0.02,0.15 0.47,-0.26 1.06,-0.26 1.27,-0.26 l 0,0.72 c -0.7,0 -0.73,0.37 -0.73,0.92 0,0.55 0.03,0.93 0.73,0.93 0.69,0 0.72,-0.37 0.72,-0.92 0,-0.55 -0.03,-0.93 -0.72,-0.93 l 0,0 0,-0.72 c 0.42,0 2,0 2,1.64 0,0.58 -0.22,0.92 -0.31,1.03 0.17,0 0.52,0 0.93,-0.11 0.04,-0.02 0.11,-0.04 0.14,-0.04 0.08,0 0.13,0.06 0.13,0.13 0,0.04 -0.05,0.28 -0.07,0.38 -0.04,0.24 -0.04,0.26 -0.22,0.26 -0.31,0 -0.81,-0.12 -1.19,-0.35 -0.47,0.31 -0.98,0.35 -1.41,0.35 -0.42,0 -2.01,0 -2.01,-1.64 0,-0.4 0.11,-0.89 0.49,-1.22 -0.27,-0.37 -0.27,-0.76 -0.27,-0.81 0,-0.19 0.06,-0.51 0.27,-0.78 -0.15,-0.06 -0.67,-0.24 -0.67,-0.88 0,-0.3 0.15,-0.82 0.78,-1.11 0.57,-0.26 1.24,-0.27 1.71,-0.27 l 0.01,0.72 c -0.4,0 -1.47,0 -1.47,0.69 0,0.47 0.31,0.47 0.54,0.47 l 1.16,0 c 0.8,0 1.22,-0.14 1.22,-0.5 0,-0.66 -1.13,-0.66 -1.45,-0.66 l -0.01,-0.72 c 0.58,0 2.49,0 2.49,1.41 0,1.55 -1.41,1.55 -2.75,1.55 z"
       font-size-adjust="none"
       font-stretch="normal"
       font-style="normal"
       font-variant="normal"
       font-weight="normal"
       letter-spacing="normal"
       stroke-miterlimit="10.433"
       word-spacing="normal"
       style="font-style:normal;font-variant:normal;font-weight:normal;font-stretch:normal;letter-spacing:normal;word-spacing:normal;text-anchor:start;fill:#000000;fill-opacity:1;fill-rule:evenodd;stroke:#000000;stroke-width:0;stroke-linecap:butt;stroke-linejoin:miter;stroke-miterlimit:10.43299961;stroke-dasharray:none;stroke-dashoffset:0;stroke-opacity:1"
       id="path4121"
       inkscape:connector-curvature="0" /></g>  <g
     style="font-style:normal;font-variant:normal;font-weight:normal;font-stretch:normal;letter-spacing:normal;word-spacing:normal;text-anchor:start;fill:#000000;fill-opacity:1;fill-rule:evenodd;stroke:#000000;stroke-linecap:butt;stroke-linejoin:miter;stroke-miterlimit:10.43299961;stroke-dasharray:none;stroke-dashoffset:0;stroke-opacity:1"
     ns0:preamble="/home/adin/.config/inkscape/extensions/beamer_packages.tex"
     ns0:text="\\textbf{Supervised}\n\n\\textbf{Learning}"
     word-spacing="normal"
     letter-spacing="normal"
     font-size-adjust="none"
     font-stretch="normal"
     font-weight="normal"
     font-variant="normal"
     font-style="normal"
     stroke-miterlimit="10.433"
     xml:space="preserve"
     transform="matrix(1,0,0,-1,-43.003508,755.05297)"
     id="content"><path
       id="path4203"
       style="font-style:normal;font-variant:normal;font-weight:normal;font-stretch:normal;letter-spacing:normal;word-spacing:normal;text-anchor:start;fill:#000000;fill-opacity:1;fill-rule:evenodd;stroke:#000000;stroke-width:0;stroke-linecap:butt;stroke-linejoin:miter;stroke-miterlimit:10.43299961;stroke-dasharray:none;stroke-dashoffset:0;stroke-opacity:1"
       word-spacing="normal"
       stroke-miterlimit="10.433"
       letter-spacing="normal"
       font-weight="normal"
       font-variant="normal"
       font-style="normal"
       font-stretch="normal"
       font-size-adjust="none"
       d="m 151.4,711.51 -0.02,0 -0.02,0.01 -0.03,0 -0.02,0.01 -0.03,0.01 -0.03,0.01 -0.04,0.02 -0.03,0.01 -0.03,0.01 -0.04,0.02 -0.03,0.02 -0.04,0.02 -0.03,0.02 -0.04,0.02 -0.03,0.02 -0.04,0.02 -0.03,0.03 -0.03,0.03 -0.04,0.03 -0.03,0.03 -0.03,0.03 -0.02,0.03 -0.03,0.04 -0.02,0.04 -0.02,0.04 -0.02,0.04 -0.02,0.04 -0.02,0.04 0,0.03 -0.01,0.02 0,0.02 -0.01,0.03 0,0.02 0,0.03 0,0.02 0,0.03 c 0,0.85 0.84,0.86 1.18,0.86 0.56,0 1.06,-0.12 1.55,-0.6 0.16,-0.15 0.17,-0.16 0.21,-0.16 0.06,0 0.11,0.03 0.14,0.18 l 0.15,0.86 c 0.02,0.08 0.02,0.1 0.02,0.13 0,0.08 -0.01,0.09 -0.26,0.22 -0.71,0.35 -1.3,0.4 -1.81,0.4 -0.88,0 -2.43,-0.21 -2.43,-2.07 0,-0.7 0.37,-1.16 0.56,-1.36 0.51,-0.52 0.98,-0.61 1.75,-0.79 0.56,-0.13 0.78,-0.18 1,-0.38 0.1,-0.1 0.31,-0.31 0.31,-0.69 0,-0.93 -0.86,-0.96 -1.19,-0.96 -0.83,0 -1.56,0.34 -2.06,0.78 -0.12,0.12 -0.14,0.12 -0.18,0.12 -0.06,0 -0.11,-0.03 -0.14,-0.18 l -0.15,-0.86 c -0.02,-0.08 -0.02,-0.1 -0.02,-0.13 0,-0.21 1.04,-0.56 1.09,-0.58 0.67,-0.21 1.2,-0.23 1.46,-0.23 1.5,0 2.44,0.66 2.44,2.2 0,1.11 -0.83,1.95 -1.83,2.18 z"
       inkscape:connector-curvature="0" /><path
       id="path4205"
       style="font-style:normal;font-variant:normal;font-weight:normal;font-stretch:normal;letter-spacing:normal;word-spacing:normal;text-anchor:start;fill:#000000;fill-opacity:1;fill-rule:evenodd;stroke:#000000;stroke-width:0;stroke-linecap:butt;stroke-linejoin:miter;stroke-miterlimit:10.43299961;stroke-dasharray:none;stroke-dashoffset:0;stroke-opacity:1"
       word-spacing="normal"
       stroke-miterlimit="10.433"
       letter-spacing="normal"
       font-weight="normal"
       font-variant="normal"
       font-style="normal"
       font-stretch="normal"
       font-size-adjust="none"
       d="m 159.79,711.2 0,0.03 0,0.03 -0.01,0.02 0,0.03 0,0.03 0,0.02 -0.01,0.02 0,0.03 -0.01,0.02 0,0.02 -0.01,0.02 -0.01,0.02 -0.01,0.02 -0.01,0.01 -0.01,0.02 -0.01,0.02 -0.01,0.01 -0.02,0.01 -0.01,0.02 -0.02,0.01 -0.02,0.01 -0.02,0.01 -0.02,0.01 -0.03,0.01 -0.02,0 -0.03,0.01 -0.02,0 -0.03,0.01 -0.02,0 -0.02,0 -0.01,0 -0.02,0 -0.02,0 -0.01,0 -0.02,0 -0.02,0 -0.4,0 c -0.38,0 -0.48,-0.12 -0.48,-0.47 l 0,-2.36 c 0,-0.65 -0.35,-1.22 -1.06,-1.22 -0.56,0 -0.61,0.14 -0.61,0.67 l 0,2.91 c 0,0.32 -0.08,0.47 -0.48,0.47 l -0.4,0 c -0.36,0 -0.48,-0.1 -0.48,-0.47 l 0,-2.82 c 0,-1.07 0.58,-1.36 1.61,-1.36 0.27,0 0.98,0 1.45,0.84 l 0,-0.26 c 0,-0.32 0.07,-0.48 0.48,-0.48 l 0.37,0 c 0.38,0 0.48,0.13 0.48,0.48 z"
       inkscape:connector-curvature="0" /><path
       id="path4207"
       style="font-style:normal;font-variant:normal;font-weight:normal;font-stretch:normal;letter-spacing:normal;word-spacing:normal;text-anchor:start;fill:#000000;fill-opacity:1;fill-rule:evenodd;stroke:#000000;stroke-width:0;stroke-linecap:butt;stroke-linejoin:miter;stroke-miterlimit:10.43299961;stroke-dasharray:none;stroke-dashoffset:0;stroke-opacity:1"
       word-spacing="normal"
       stroke-miterlimit="10.433"
       letter-spacing="normal"
       font-weight="normal"
       font-variant="normal"
       font-style="normal"
       font-stretch="normal"
       font-size-adjust="none"
       d="m 162.35,707.51 0.24,0.39 c -0.24,0.17 -0.24,0.22 -0.24,0.4 l 0,2.38 c 0.11,0.1 0.44,0.33 0.87,0.33 1.02,0 1.03,-1.17 1.03,-1.61 0,-0.4 0,-1.67 -1.13,-1.67 -0.23,0 -0.41,0.08 -0.53,0.17 l -0.24,-0.39 c 0.45,-0.49 1,-0.49 1.14,-0.49 2.12,0 2.12,1.9 2.12,2.4 0,0.49 0,2.36 -1.81,2.36 -0.59,0 -1.12,-0.23 -1.48,-0.57 0,0.37 -0.14,0.46 -0.47,0.46 l -0.37,0 c -0.36,0 -0.48,-0.1 -0.48,-0.47 l 0,-5.53 c 0,-0.35 0.11,-0.47 0.48,-0.47 l 0.4,0 c 0.38,0 0.47,0.13 0.47,0.47 z"
       inkscape:connector-curvature="0" /><path
       id="path4209"
       style="font-style:normal;font-variant:normal;font-weight:normal;font-stretch:normal;letter-spacing:normal;word-spacing:normal;text-anchor:start;fill:#000000;fill-opacity:1;fill-rule:evenodd;stroke:#000000;stroke-width:0;stroke-linecap:butt;stroke-linejoin:miter;stroke-miterlimit:10.43299961;stroke-dasharray:none;stroke-dashoffset:0;stroke-opacity:1"
       word-spacing="normal"
       stroke-miterlimit="10.433"
       letter-spacing="normal"
       font-weight="normal"
       font-variant="normal"
       font-style="normal"
       font-stretch="normal"
       font-size-adjust="none"
       d="m 170.59,709.25 0.04,0 0.04,0 0.02,0 0.03,0 0.02,0.01 0.02,0 0.02,0 0.02,0.01 0.02,0 0.02,0.01 0.02,0 0.02,0.01 0.01,0.01 0.02,0.01 0.02,0.01 0.02,0.02 0.01,0.01 0.01,0.02 0.02,0.01 0,0.01 0.01,0.01 0.01,0.01 0,0.02 0.01,0.01 0,0.01 0.01,0.01 0,0.01 0.01,0.02 0,0.01 0.01,0.01 0,0.02 0,0.01 0,0.02 0.01,0.02 0,0.01 0,0.02 0,0.02 0,0.02 0.01,0.02 0,0.02 0,0.02 c 0,1.28 -0.6,2.13 -2.09,2.13 -1.59,0 -2.38,-0.89 -2.38,-2.4 0,-1.63 0.94,-2.42 2.51,-2.42 0.38,0 0.95,0.05 1.61,0.37 0.22,0.11 0.29,0.14 0.29,0.26 0,0.07 -0.03,0.36 -0.04,0.44 -0.04,0.31 -0.05,0.32 -0.14,0.32 -0.04,0 -0.06,0 -0.17,-0.1 -0.59,-0.51 -1.19,-0.58 -1.51,-0.58 -1.13,0 -1.25,0.88 -1.28,1.52 l 0.01,0.53 c 0.03,0.6 0.23,1.35 1.1,1.35 0.8,0 0.95,-0.58 0.98,-1.35 l -2.08,0 -0.01,-0.53 z"
       inkscape:connector-curvature="0" /><path
       id="path4211"
       style="font-style:normal;font-variant:normal;font-weight:normal;font-stretch:normal;letter-spacing:normal;word-spacing:normal;text-anchor:start;fill:#000000;fill-opacity:1;fill-rule:evenodd;stroke:#000000;stroke-width:0;stroke-linecap:butt;stroke-linejoin:miter;stroke-miterlimit:10.43299961;stroke-dasharray:none;stroke-dashoffset:0;stroke-opacity:1"
       word-spacing="normal"
       stroke-miterlimit="10.433"
       letter-spacing="normal"
       font-weight="normal"
       font-variant="normal"
       font-style="normal"
       font-stretch="normal"
       font-size-adjust="none"
       d="m 173.32,709.41 0,0.09 0,0.08 0.01,0.08 0.02,0.08 0.02,0.07 0.02,0.07 0.03,0.07 0.03,0.07 0.03,0.06 0.04,0.06 0.04,0.05 0.04,0.06 0.04,0.05 0.05,0.05 0.05,0.04 0.05,0.04 0.05,0.04 0.05,0.04 0.06,0.04 0.06,0.03 0.06,0.03 0.05,0.03 0.06,0.02 0.06,0.02 0.07,0.02 0.06,0.02 0.06,0.02 0.06,0.01 0.06,0.01 0.06,0.01 0.06,0.01 0.06,0 c 0.18,0.01 0.2,0.01 0.2,0.27 l 0,0.47 c 0,0.19 0,0.26 -0.18,0.26 -0.28,0 -1.01,-0.1 -1.47,-1.17 l -0.01,0 0,0.65 c 0,0.32 -0.07,0.47 -0.48,0.47 l -0.32,0 c -0.36,0 -0.48,-0.11 -0.48,-0.47 l 0,-3.66 c 0,-0.36 0.11,-0.48 0.48,-0.48 l 0.37,0 c 0.38,0 0.48,0.13 0.48,0.48 z"
       inkscape:connector-curvature="0" /><path
       id="path4213"
       style="font-style:normal;font-variant:normal;font-weight:normal;font-stretch:normal;letter-spacing:normal;word-spacing:normal;text-anchor:start;fill:#000000;fill-opacity:1;fill-rule:evenodd;stroke:#000000;stroke-width:0;stroke-linecap:butt;stroke-linejoin:miter;stroke-miterlimit:10.43299961;stroke-dasharray:none;stroke-dashoffset:0;stroke-opacity:1"
       word-spacing="normal"
       stroke-miterlimit="10.433"
       letter-spacing="normal"
       font-weight="normal"
       font-variant="normal"
       font-style="normal"
       font-stretch="normal"
       font-size-adjust="none"
       d="m 179.76,711.21 0,0 0,0.01 0,0.01 0,0 0.01,0.01 0,0 0,0.01 0,0 0,0.01 0.01,0 0,0.01 0,0 0,0.01 0,0 0,0.01 0.01,0.01 0,0.01 0,0 0,0.01 0.01,0.01 0,0 0,0.01 0,0 0,0.01 0,0 0,0.01 0,0 0,0 0,0.01 0,0 0.01,0 0,0.01 0,0 0,0.01 0,0 0,0.01 c 0,0.27 -0.25,0.27 -0.4,0.27 l -0.21,0 c -0.42,0 -0.53,-0.14 -0.62,-0.42 l -0.99,-3 -0.99,3 c -0.06,0.21 -0.14,0.42 -0.61,0.42 l -0.24,0 c -0.15,0 -0.4,0 -0.4,-0.27 0,-0.03 0,-0.05 0.05,-0.19 l 1.19,-3.67 c 0.13,-0.42 0.44,-0.42 0.62,-0.42 l 0.73,0 c 0.18,0 0.49,0 0.63,0.42 z"
       inkscape:connector-curvature="0" /><path
       id="path4215"
       style="font-style:normal;font-variant:normal;font-weight:normal;font-stretch:normal;letter-spacing:normal;word-spacing:normal;text-anchor:start;fill:#000000;fill-opacity:1;fill-rule:evenodd;stroke:#000000;stroke-width:0;stroke-linecap:butt;stroke-linejoin:miter;stroke-miterlimit:10.43299961;stroke-dasharray:none;stroke-dashoffset:0;stroke-opacity:1"
       word-spacing="normal"
       stroke-miterlimit="10.433"
       letter-spacing="normal"
       font-weight="normal"
       font-variant="normal"
       font-style="normal"
       font-stretch="normal"
       font-size-adjust="none"
       d="m 181.09,714.03 -0.03,0 -0.03,0 -0.03,0 -0.03,0 -0.02,-0.01 -0.03,0 -0.02,0 -0.02,-0.01 -0.02,0 -0.03,-0.01 -0.02,0 -0.01,-0.01 -0.02,-0.01 -0.02,-0.01 -0.02,-0.01 -0.01,-0.01 -0.02,-0.01 -0.01,-0.02 -0.01,-0.01 -0.01,-0.02 -0.01,-0.02 -0.01,-0.02 -0.01,-0.02 -0.01,-0.02 -0.01,-0.02 0,-0.03 -0.01,-0.03 0,-0.01 0,-0.01 -0.01,-0.02 0,-0.01 0,-0.02 0,-0.02 0,-0.01 0,-0.02 0,-0.02 0,-0.02 0,-0.46 c 0,-0.31 0.1,-0.44 0.47,-0.44 l 0.52,0 c 0.47,0 0.47,0.21 0.47,0.67 0,0.48 0,0.69 -0.47,0.69 z"
       inkscape:connector-curvature="0" /><path
       id="path4217"
       style="font-style:normal;font-variant:normal;font-weight:normal;font-stretch:normal;letter-spacing:normal;word-spacing:normal;text-anchor:start;fill:#000000;fill-opacity:1;fill-rule:evenodd;stroke:#000000;stroke-width:0;stroke-linecap:butt;stroke-linejoin:miter;stroke-miterlimit:10.43299961;stroke-dasharray:none;stroke-dashoffset:0;stroke-opacity:1"
       word-spacing="normal"
       stroke-miterlimit="10.433"
       letter-spacing="normal"
       font-weight="normal"
       font-variant="normal"
       font-style="normal"
       font-stretch="normal"
       font-size-adjust="none"
       d="m 182.01,711.2 -0.01,0.03 0,0.03 0,0.02 0,0.03 0,0.03 0,0.02 -0.01,0.02 0,0.03 -0.01,0.02 0,0.02 -0.01,0.02 -0.01,0.02 -0.01,0.02 -0.01,0.01 -0.01,0.02 -0.01,0.02 -0.01,0.01 -0.02,0.01 -0.02,0.02 -0.01,0.01 -0.02,0.01 -0.02,0.01 -0.02,0.01 -0.03,0.01 -0.02,0 -0.03,0.01 -0.03,0 -0.03,0.01 -0.01,0 -0.02,0 -0.01,0 -0.02,0 -0.02,0 -0.02,0 -0.02,0 -0.01,0 -0.37,0 c -0.36,0 -0.48,-0.1 -0.48,-0.47 l 0,-3.6 c 0,-0.36 0.11,-0.48 0.48,-0.48 l 0.37,0 c 0.37,0 0.48,0.13 0.48,0.48 z"
       inkscape:connector-curvature="0" /><path
       id="path4219"
       style="font-style:normal;font-variant:normal;font-weight:normal;font-stretch:normal;letter-spacing:normal;word-spacing:normal;text-anchor:start;fill:#000000;fill-opacity:1;fill-rule:evenodd;stroke:#000000;stroke-width:0;stroke-linecap:butt;stroke-linejoin:miter;stroke-miterlimit:10.43299961;stroke-dasharray:none;stroke-dashoffset:0;stroke-opacity:1"
       word-spacing="normal"
       stroke-miterlimit="10.433"
       letter-spacing="normal"
       font-weight="normal"
       font-variant="normal"
       font-style="normal"
       font-stretch="normal"
       font-size-adjust="none"
       d="m 186.57,708.53 0,0.05 -0.01,0.05 0,0.05 -0.01,0.04 0,0.05 -0.01,0.05 -0.01,0.04 -0.01,0.04 -0.02,0.05 -0.01,0.04 -0.01,0.04 -0.02,0.03 -0.01,0.04 -0.02,0.04 -0.02,0.03 -0.02,0.04 -0.01,0.03 -0.02,0.03 -0.02,0.03 -0.02,0.03 -0.02,0.03 -0.02,0.02 -0.02,0.03 -0.02,0.02 -0.02,0.03 -0.02,0.02 -0.02,0.02 -0.02,0.02 -0.02,0.02 -0.02,0.02 -0.02,0.01 -0.01,0.02 c -0.4,0.36 -0.75,0.42 -1.17,0.5 -0.55,0.09 -0.95,0.17 -0.95,0.56 0,0.41 0.33,0.49 0.72,0.49 0.67,0 1.03,-0.25 1.29,-0.47 0.1,-0.1 0.12,-0.1 0.16,-0.1 0.1,0 0.12,0.09 0.13,0.13 0.02,0.08 0.12,0.64 0.12,0.69 0,0.16 -0.53,0.29 -0.64,0.33 -0.4,0.11 -0.72,0.12 -0.98,0.12 -0.45,0 -1.78,0 -1.78,-1.42 0,-0.48 0.22,-0.78 0.48,-1.02 0.35,-0.32 0.74,-0.39 1.31,-0.5 0.29,-0.05 0.8,-0.14 0.8,-0.57 0,-0.47 -0.39,-0.54 -0.78,-0.54 -0.44,0 -1,0.13 -1.46,0.69 -0.05,0.05 -0.08,0.07 -0.14,0.07 -0.1,0 -0.13,-0.08 -0.13,-0.14 -0.03,-0.14 -0.14,-0.71 -0.14,-0.81 0,-0.18 0.73,-0.41 0.74,-0.42 0.55,-0.16 0.96,-0.16 1.13,-0.16 0.51,0 1.77,0.03 1.77,1.51 z"
       inkscape:connector-curvature="0" /><path
       id="path4221"
       style="font-style:normal;font-variant:normal;font-weight:normal;font-stretch:normal;letter-spacing:normal;word-spacing:normal;text-anchor:start;fill:#000000;fill-opacity:1;fill-rule:evenodd;stroke:#000000;stroke-width:0;stroke-linecap:butt;stroke-linejoin:miter;stroke-miterlimit:10.43299961;stroke-dasharray:none;stroke-dashoffset:0;stroke-opacity:1"
       word-spacing="normal"
       stroke-miterlimit="10.433"
       letter-spacing="normal"
       font-weight="normal"
       font-variant="normal"
       font-style="normal"
       font-stretch="normal"
       font-size-adjust="none"
       d="m 191.12,709.25 0.04,0 0.04,0 0.02,0 0.03,0 0.02,0.01 0.02,0 0.02,0 0.02,0.01 0.02,0 0.02,0.01 0.02,0 0.02,0.01 0.01,0.01 0.02,0.01 0.02,0.01 0.01,0.02 0.02,0.01 0.01,0.02 0.02,0.01 0,0.01 0.01,0.01 0.01,0.01 0,0.02 0.01,0.01 0,0.01 0.01,0.01 0,0.01 0.01,0.02 0,0.01 0,0.01 0.01,0.02 0,0.01 0,0.02 0.01,0.02 0,0.01 0,0.02 0,0.02 0,0.02 0,0.02 0,0.02 0.01,0.02 c 0,1.28 -0.6,2.13 -2.09,2.13 -1.6,0 -2.38,-0.89 -2.38,-2.4 0,-1.63 0.94,-2.42 2.51,-2.42 0.38,0 0.95,0.05 1.6,0.37 0.22,0.11 0.3,0.14 0.3,0.26 0,0.07 -0.03,0.36 -0.05,0.44 -0.03,0.31 -0.04,0.32 -0.14,0.32 -0.03,0 -0.06,0 -0.16,-0.1 -0.59,-0.51 -1.19,-0.58 -1.51,-0.58 -1.13,0 -1.25,0.88 -1.28,1.52 l 0.01,0.53 c 0.03,0.6 0.23,1.35 1.1,1.35 0.8,0 0.95,-0.58 0.98,-1.35 l -2.08,0 -0.01,-0.53 z"
       inkscape:connector-curvature="0" /><path
       id="path4223"
       style="font-style:normal;font-variant:normal;font-weight:normal;font-stretch:normal;letter-spacing:normal;word-spacing:normal;text-anchor:start;fill:#000000;fill-opacity:1;fill-rule:evenodd;stroke:#000000;stroke-width:0;stroke-linecap:butt;stroke-linejoin:miter;stroke-miterlimit:10.43299961;stroke-dasharray:none;stroke-dashoffset:0;stroke-opacity:1"
       word-spacing="normal"
       stroke-miterlimit="10.433"
       letter-spacing="normal"
       font-weight="normal"
       font-variant="normal"
       font-style="normal"
       font-stretch="normal"
       font-size-adjust="none"
       d="m 196.89,713.54 0,0.03 0,0.03 -0.01,0.03 0,0.02 0,0.03 0,0.02 -0.01,0.03 0,0.02 -0.01,0.02 0,0.02 -0.01,0.02 -0.01,0.02 -0.01,0.02 -0.01,0.02 -0.01,0.01 -0.01,0.02 -0.01,0.01 -0.02,0.02 -0.01,0.01 -0.02,0.01 -0.02,0.01 -0.02,0.01 -0.02,0.01 -0.03,0.01 -0.02,0.01 -0.03,0 -0.03,0.01 -0.02,0 -0.02,0 -0.02,0 -0.01,0.01 -0.02,0 -0.02,0 -0.02,0 -0.01,0 -0.02,0 -0.37,0 c -0.38,0 -0.48,-0.13 -0.48,-0.48 l 0,-2.25 c -0.45,0.42 -0.95,0.49 -1.26,0.49 -2.02,0 -2.02,-1.9 -2.02,-2.39 0,-0.46 0,-2.37 1.97,-2.37 0.42,0 0.85,0.12 1.28,0.57 l -0.29,0.32 c -0.25,-0.16 -0.48,-0.18 -0.6,-0.18 -1.01,0 -1.01,0.92 -1.01,1.66 0,0.75 0,1.68 1.12,1.68 0.29,0 0.56,-0.1 0.78,-0.31 l 0,-2.39 c 0,-0.17 0,-0.26 -0.29,-0.46 l 0.29,-0.32 c 0,-0.37 0.14,-0.47 0.48,-0.47 l 0.4,0 c 0.38,0 0.48,0.13 0.48,0.48 z"
       inkscape:connector-curvature="0" /><path
       id="path4225"
       style="font-style:normal;font-variant:normal;font-weight:normal;font-stretch:normal;letter-spacing:normal;word-spacing:normal;text-anchor:start;fill:#000000;fill-opacity:1;fill-rule:evenodd;stroke:#000000;stroke-width:0;stroke-linecap:butt;stroke-linejoin:miter;stroke-miterlimit:10.43299961;stroke-dasharray:none;stroke-dashoffset:0;stroke-opacity:1"
       word-spacing="normal"
       stroke-miterlimit="10.433"
       letter-spacing="normal"
       font-weight="normal"
       font-variant="normal"
       font-style="normal"
       font-stretch="normal"
       font-size-adjust="none"
       d="m 151.09,696.17 0,5.42 c 0,0.32 -0.07,0.47 -0.48,0.47 l -0.51,0 c -0.36,0 -0.48,-0.1 -0.48,-0.47 l 0,-5.94 c 0,-0.36 0.11,-0.48 0.48,-0.48 l 3.46,0 c 0.38,0 0.48,0.13 0.48,0.48 l 0,0.09 c 0,0.23 -0.01,0.47 -0.47,0.47 z"
       inkscape:connector-curvature="0" /><path
       id="path4227"
       style="font-style:normal;font-variant:normal;font-weight:normal;font-stretch:normal;letter-spacing:normal;word-spacing:normal;text-anchor:start;fill:#000000;fill-opacity:1;fill-rule:evenodd;stroke:#000000;stroke-width:0;stroke-linecap:butt;stroke-linejoin:miter;stroke-miterlimit:10.43299961;stroke-dasharray:none;stroke-dashoffset:0;stroke-opacity:1"
       word-spacing="normal"
       stroke-miterlimit="10.433"
       letter-spacing="normal"
       font-weight="normal"
       font-variant="normal"
       font-style="normal"
       font-stretch="normal"
       font-size-adjust="none"
       d="m 158.79,697.3 0.05,0 0.04,0 0.02,0 0.02,0 0.02,0 0.03,0 0.02,0.01 0.02,0 0.02,0.01 0.02,0 0.02,0.01 0.01,0.01 0.02,0.01 0.02,0.01 0.02,0.01 0.01,0.01 0.02,0.02 0.01,0.01 0.02,0.02 0,0.01 0.01,0.01 0,0.01 0.01,0.01 0.01,0.01 0,0.01 0.01,0.02 0,0.01 0,0.01 0.01,0.01 0,0.02 0.01,0.01 0,0.02 0,0.02 0,0.01 0.01,0.02 0,0.02 0,0.01 0,0.02 0,0.02 0,0.02 0,0.02 c 0,1.28 -0.59,2.14 -2.08,2.14 -1.6,0 -2.39,-0.9 -2.39,-2.41 0,-1.63 0.95,-2.42 2.52,-2.42 0.38,0 0.95,0.05 1.6,0.38 0.22,0.11 0.29,0.14 0.29,0.26 0,0.07 -0.03,0.35 -0.04,0.43 -0.04,0.31 -0.05,0.32 -0.14,0.32 -0.04,0 -0.06,0 -0.17,-0.1 -0.58,-0.51 -1.18,-0.57 -1.5,-0.57 -1.13,0 -1.25,0.88 -1.28,1.52 l 0.01,0.52 c 0.03,0.61 0.23,1.35 1.1,1.35 0.8,0 0.95,-0.57 0.98,-1.35 l -2.08,0 -0.01,-0.52 z"
       inkscape:connector-curvature="0" /><path
       id="path4229"
       style="font-style:normal;font-variant:normal;font-weight:normal;font-stretch:normal;letter-spacing:normal;word-spacing:normal;text-anchor:start;fill:#000000;fill-opacity:1;fill-rule:evenodd;stroke:#000000;stroke-width:0;stroke-linecap:butt;stroke-linejoin:miter;stroke-miterlimit:10.43299961;stroke-dasharray:none;stroke-dashoffset:0;stroke-opacity:1"
       word-spacing="normal"
       stroke-miterlimit="10.433"
       letter-spacing="normal"
       font-weight="normal"
       font-variant="normal"
       font-style="normal"
       font-stretch="normal"
       font-size-adjust="none"
       d="m 164.21,698.31 0,0.07 0,0.07 0,0.07 -0.01,0.07 -0.01,0.06 -0.01,0.06 -0.02,0.06 -0.01,0.06 -0.02,0.05 -0.02,0.06 -0.02,0.05 -0.02,0.05 -0.02,0.05 -0.03,0.04 -0.02,0.05 -0.03,0.04 -0.03,0.04 -0.03,0.04 -0.03,0.04 -0.03,0.03 -0.07,0.07 -0.07,0.06 -0.08,0.05 -0.07,0.05 -0.08,0.05 -0.09,0.04 -0.08,0.03 -0.08,0.03 -0.09,0.03 -0.08,0.02 -0.09,0.02 -0.08,0.02 -0.08,0.01 -0.08,0.01 -0.08,0.01 -0.08,0.01 -0.07,0 -0.07,0.01 -0.06,0 -0.06,0 -0.06,0 -0.05,0 c -0.47,0 -0.97,-0.04 -1.63,-0.32 -0.21,-0.09 -0.26,-0.12 -0.26,-0.23 0,-0.07 0.06,-0.64 0.07,-0.72 0.01,-0.06 0.06,-0.11 0.13,-0.11 0.04,0 0.08,0.03 0.11,0.06 0.42,0.44 0.92,0.66 1.54,0.66 0.54,0 0.7,-0.32 0.7,-0.91 l 0,-0.35 0,-0.41 0,-0.86 c 0,-0.92 -0.95,-0.92 -0.98,-0.92 -0.42,0 -0.69,0.35 -0.69,0.73 0,0.97 1.39,1.04 1.67,1.05 l 0,0.41 c -0.35,0 -2.96,-0.02 -2.96,-1.48 0,-0.69 0.56,-1.43 1.43,-1.43 0.34,0 1.09,0.1 1.56,0.78 l 0,-0.19 c 0,-0.32 0.07,-0.48 0.48,-0.48 l 0.37,0 c 0.38,0 0.47,0.13 0.47,0.48 z"
       inkscape:connector-curvature="0" /><path
       id="path4231"
       style="font-style:normal;font-variant:normal;font-weight:normal;font-stretch:normal;letter-spacing:normal;word-spacing:normal;text-anchor:start;fill:#000000;fill-opacity:1;fill-rule:evenodd;stroke:#000000;stroke-width:0;stroke-linecap:butt;stroke-linejoin:miter;stroke-miterlimit:10.43299961;stroke-dasharray:none;stroke-dashoffset:0;stroke-opacity:1"
       word-spacing="normal"
       stroke-miterlimit="10.433"
       letter-spacing="normal"
       font-weight="normal"
       font-variant="normal"
       font-style="normal"
       font-stretch="normal"
       font-size-adjust="none"
       d="m 166.44,697.46 0.01,0.08 0,0.09 0.01,0.08 0.02,0.07 0.02,0.08 0.02,0.07 0.03,0.07 0.03,0.06 0.03,0.06 0.04,0.06 0.03,0.06 0.05,0.05 0.04,0.05 0.05,0.05 0.05,0.05 0.05,0.04 0.05,0.04 0.05,0.04 0.06,0.03 0.06,0.03 0.05,0.03 0.06,0.03 0.06,0.03 0.06,0.02 0.06,0.02 0.07,0.02 0.06,0.01 0.06,0.01 0.06,0.02 0.06,0 0.06,0.01 0.06,0.01 c 0.18,0.01 0.2,0.01 0.2,0.26 l 0,0.47 c 0,0.2 0,0.27 -0.18,0.27 -0.28,0 -1.01,-0.1 -1.48,-1.17 l -0.01,0 0,0.64 c 0,0.32 -0.07,0.48 -0.47,0.48 l -0.32,0 c -0.36,0 -0.48,-0.11 -0.48,-0.48 l 0,-3.65 c 0,-0.36 0.11,-0.48 0.48,-0.48 l 0.37,0 c 0.37,0 0.47,0.13 0.47,0.48 z"
       inkscape:connector-curvature="0" /><path
       id="path4233"
       style="font-style:normal;font-variant:normal;font-weight:normal;font-stretch:normal;letter-spacing:normal;word-spacing:normal;text-anchor:start;fill:#000000;fill-opacity:1;fill-rule:evenodd;stroke:#000000;stroke-width:0;stroke-linecap:butt;stroke-linejoin:miter;stroke-miterlimit:10.43299961;stroke-dasharray:none;stroke-dashoffset:0;stroke-opacity:1"
       word-spacing="normal"
       stroke-miterlimit="10.433"
       letter-spacing="normal"
       font-weight="normal"
       font-variant="normal"
       font-style="normal"
       font-stretch="normal"
       font-size-adjust="none"
       d="m 173.2,698.4 0,0.09 0,0.09 -0.01,0.09 -0.01,0.08 -0.01,0.08 -0.01,0.08 -0.02,0.07 -0.02,0.07 -0.02,0.07 -0.03,0.06 -0.03,0.06 -0.03,0.06 -0.03,0.05 -0.04,0.06 -0.04,0.04 -0.04,0.05 -0.05,0.04 -0.05,0.04 -0.05,0.03 -0.05,0.04 -0.06,0.03 -0.06,0.02 -0.07,0.03 -0.07,0.02 -0.07,0.02 -0.07,0.01 -0.08,0.02 -0.08,0.01 -0.08,0.01 -0.09,0 -0.09,0.01 -0.09,0 c -1.05,0 -1.5,-0.76 -1.63,-1.02 l -0.01,0 0,0.49 c 0,0.32 -0.07,0.48 -0.48,0.48 l -0.34,0 c -0.35,0 -0.47,-0.11 -0.47,-0.48 l 0,-3.65 c 0,-0.36 0.11,-0.48 0.47,-0.48 l 0.4,0 c 0.38,0 0.48,0.13 0.48,0.48 l 0,2.19 c 0,0.87 0.58,1.27 1.1,1.27 0.48,0 0.58,-0.22 0.58,-0.73 l 0,-2.73 c 0,-0.32 0.07,-0.48 0.48,-0.48 l 0.4,0 c 0.37,0 0.47,0.13 0.47,0.48 z"
       inkscape:connector-curvature="0" /><path
       id="path4235"
       style="font-style:normal;font-variant:normal;font-weight:normal;font-stretch:normal;letter-spacing:normal;word-spacing:normal;text-anchor:start;fill:#000000;fill-opacity:1;fill-rule:evenodd;stroke:#000000;stroke-width:0;stroke-linecap:butt;stroke-linejoin:miter;stroke-miterlimit:10.43299961;stroke-dasharray:none;stroke-dashoffset:0;stroke-opacity:1"
       word-spacing="normal"
       stroke-miterlimit="10.433"
       letter-spacing="normal"
       font-weight="normal"
       font-variant="normal"
       font-style="normal"
       font-stretch="normal"
       font-size-adjust="none"
       d="m 174.82,702.07 -0.02,0 -0.03,0 -0.03,0 -0.03,0 -0.02,0 -0.03,0 -0.02,-0.01 -0.02,0 -0.03,-0.01 -0.02,0 -0.02,-0.01 -0.02,-0.01 -0.01,0 -0.02,-0.01 -0.02,-0.01 -0.01,-0.02 -0.02,-0.01 -0.01,-0.01 -0.01,-0.02 -0.02,-0.01 -0.01,-0.02 -0.01,-0.02 -0.01,-0.02 0,-0.02 -0.01,-0.03 -0.01,-0.02 0,-0.03 0,-0.01 -0.01,-0.02 0,-0.01 0,-0.02 0,-0.02 0,-0.01 0,-0.02 0,-0.02 0,-0.01 0,-0.02 0,-0.46 c 0,-0.32 0.1,-0.45 0.47,-0.45 l 0.51,0 c 0.48,0 0.48,0.21 0.48,0.68 0,0.47 0,0.68 -0.48,0.68 z"
       inkscape:connector-curvature="0" /><path
       id="path4237"
       style="font-style:normal;font-variant:normal;font-weight:normal;font-stretch:normal;letter-spacing:normal;word-spacing:normal;text-anchor:start;fill:#000000;fill-opacity:1;fill-rule:evenodd;stroke:#000000;stroke-width:0;stroke-linecap:butt;stroke-linejoin:miter;stroke-miterlimit:10.43299961;stroke-dasharray:none;stroke-dashoffset:0;stroke-opacity:1"
       word-spacing="normal"
       stroke-miterlimit="10.433"
       letter-spacing="normal"
       font-weight="normal"
       font-variant="normal"
       font-style="normal"
       font-stretch="normal"
       font-size-adjust="none"
       d="m 175.74,699.24 0,0.03 0,0.03 0,0.03 0,0.02 0,0.03 -0.01,0.03 0,0.02 -0.01,0.02 0,0.02 -0.01,0.02 0,0.02 -0.01,0.02 -0.01,0.02 -0.01,0.02 -0.01,0.02 -0.01,0.01 -0.02,0.02 -0.01,0.01 -0.02,0.01 -0.02,0.01 -0.01,0.01 -0.02,0.01 -0.03,0.01 -0.02,0.01 -0.02,0.01 -0.03,0 -0.03,0.01 -0.03,0 -0.01,0 -0.02,0.01 -0.02,0 -0.01,0 -0.02,0 -0.02,0 -0.02,0 -0.02,0 -0.36,0 c -0.36,0 -0.48,-0.11 -0.48,-0.48 l 0,-3.59 c 0,-0.36 0.11,-0.48 0.48,-0.48 l 0.36,0 c 0.38,0 0.48,0.13 0.48,0.48 z"
       inkscape:connector-curvature="0" /><path
       id="path4239"
       style="font-style:normal;font-variant:normal;font-weight:normal;font-stretch:normal;letter-spacing:normal;word-spacing:normal;text-anchor:start;fill:#000000;fill-opacity:1;fill-rule:evenodd;stroke:#000000;stroke-width:0;stroke-linecap:butt;stroke-linejoin:miter;stroke-miterlimit:10.43299961;stroke-dasharray:none;stroke-dashoffset:0;stroke-opacity:1"
       word-spacing="normal"
       stroke-miterlimit="10.433"
       letter-spacing="normal"
       font-weight="normal"
       font-variant="normal"
       font-style="normal"
       font-stretch="normal"
       font-size-adjust="none"
       d="m 181.34,698.4 0,0.09 -0.01,0.09 0,0.09 -0.01,0.08 -0.01,0.08 -0.02,0.08 -0.01,0.07 -0.02,0.07 -0.03,0.07 -0.02,0.06 -0.03,0.06 -0.03,0.06 -0.04,0.05 -0.03,0.06 -0.04,0.04 -0.05,0.05 -0.04,0.04 -0.05,0.04 -0.05,0.03 -0.06,0.04 -0.06,0.03 -0.06,0.02 -0.06,0.03 -0.07,0.02 -0.07,0.02 -0.07,0.01 -0.08,0.02 -0.08,0.01 -0.09,0.01 -0.08,0 -0.09,0.01 -0.1,0 c -1.04,0 -1.49,-0.76 -1.62,-1.02 l -0.01,0 0,0.49 c 0,0.32 -0.07,0.48 -0.48,0.48 l -0.34,0 c -0.36,0 -0.48,-0.11 -0.48,-0.48 l 0,-3.65 c 0,-0.36 0.11,-0.48 0.48,-0.48 l 0.4,0 c 0.38,0 0.48,0.13 0.48,0.48 l 0,2.19 c 0,0.87 0.58,1.27 1.1,1.27 0.47,0 0.57,-0.22 0.57,-0.73 l 0,-2.73 c 0,-0.32 0.07,-0.48 0.48,-0.48 l 0.4,0 c 0.38,0 0.48,0.13 0.48,0.48 z"
       inkscape:connector-curvature="0" /><path
       id="path4241"
       style="font-style:normal;font-variant:normal;font-weight:normal;font-stretch:normal;letter-spacing:normal;word-spacing:normal;text-anchor:start;fill:#000000;fill-opacity:1;fill-rule:evenodd;stroke:#000000;stroke-width:0;stroke-linecap:butt;stroke-linejoin:miter;stroke-miterlimit:10.43299961;stroke-dasharray:none;stroke-dashoffset:0;stroke-opacity:1"
       word-spacing="normal"
       stroke-miterlimit="10.433"
       letter-spacing="normal"
       font-weight="normal"
       font-variant="normal"
       font-style="normal"
       font-stretch="normal"
       font-size-adjust="none"
       d="m 183.94,696.08 -0.03,0 -0.04,0 -0.03,0 -0.03,0 -0.02,0 -0.03,0 -0.03,0.01 -0.02,0 -0.03,0 -0.02,0 -0.02,0 -0.02,0 -0.02,0 -0.02,0 -0.02,0.01 -0.02,0 -0.02,0 -0.02,0.01 -0.01,0 -0.02,0 -0.02,0.01 -0.01,0 -0.02,0.01 -0.01,0 -0.02,0.01 -0.01,0.01 -0.01,0.01 -0.02,0 -0.01,0.01 -0.01,0.01 -0.02,0.01 -0.01,0.01 c -0.04,0.04 -0.21,0.19 -0.21,0.45 0,0.07 0.01,0.09 0.02,0.15 0.47,-0.26 1.06,-0.26 1.27,-0.26 l 0,0.72 c -0.7,0 -0.73,0.37 -0.73,0.92 0,0.55 0.03,0.93 0.73,0.93 0.69,0 0.72,-0.37 0.72,-0.92 0,-0.55 -0.03,-0.93 -0.72,-0.93 l 0,0 0,-0.72 c 0.42,0 2,0 2,1.64 0,0.58 -0.22,0.92 -0.31,1.03 0.17,0 0.52,0 0.93,-0.11 0.04,-0.02 0.11,-0.04 0.14,-0.04 0.08,0 0.13,0.06 0.13,0.13 0,0.04 -0.05,0.28 -0.07,0.38 -0.04,0.24 -0.04,0.26 -0.22,0.26 -0.31,0 -0.81,-0.12 -1.19,-0.35 -0.47,0.31 -0.98,0.35 -1.41,0.35 -0.42,0 -2.01,0 -2.01,-1.64 0,-0.4 0.11,-0.89 0.49,-1.22 -0.27,-0.37 -0.27,-0.76 -0.27,-0.81 0,-0.19 0.06,-0.51 0.27,-0.78 -0.15,-0.06 -0.67,-0.24 -0.67,-0.88 0,-0.3 0.15,-0.82 0.78,-1.11 0.57,-0.26 1.24,-0.27 1.71,-0.27 l 0.01,0.72 c -0.4,0 -1.47,0 -1.47,0.69 0,0.47 0.31,0.47 0.54,0.47 l 1.16,0 c 0.8,0 1.22,-0.14 1.22,-0.5 0,-0.66 -1.13,-0.66 -1.45,-0.66 l -0.01,-0.72 c 0.58,0 2.49,0 2.49,1.41 0,1.55 -1.41,1.55 -2.75,1.55 z"
       inkscape:connector-curvature="0" /></g>  <path
     id="path3224"
     d="m 248.7957,150.78165 c -1.13691,0 -1.83369,1.08828 -1.27234,1.98715 0.80799,1.29377 0.57276,1.93432 -0.71003,1.93432 h -1.17621 v 3.33309 3.33336 h 5.88207 5.88233 v -3.33336 -3.33309 h -1.17645 c -1.29058,0 -1.5177,-0.64103 -0.6941,-1.95982 0.39984,-0.64025 0.36495,-0.89016 -0.20347,-1.45856 -0.5381,-0.53811 -0.83222,-0.59124 -1.3648,-0.24624 -0.6878,0.44553 -0.70839,0.65543 -0.25342,2.58616 l 0.25422,1.07846 h -2.39862 c -2.04833,0 -2.39863,-0.10327 -2.39863,-0.70605 0,-0.38822 0.19403,-0.89979 0.43113,-1.13689 0.61139,-0.61139 0.0455,-2.07853 -0.80168,-2.07853 z m 0.39658,5.88206 c 1.08071,0 1.18995,0.10951 1.07846,1.07846 -0.0845,0.73469 -0.37907,1.11488 -0.92438,1.19291 -1.01108,0.14475 -1.35657,-0.20049 -1.35657,-1.35628 0,-0.75965 0.20418,-0.91509 1.20249,-0.91509 z m 4.87588,0 c 0.82786,0 0.98043,0.18302 0.98043,1.17647 0,0.99342 -0.15257,1.17647 -0.98043,1.17647 -0.82786,0 -0.98044,-0.18305 -0.98044,-1.17647 0,-0.99345 0.15258,-1.17647 0.98044,-1.17647 z m -10.78397,5.88232 v 5.50569 5.50539 l 2.58828,1.65036 2.58828,1.65007 -1.74996,0.7852 -1.75023,0.7852 0.0869,2.15689 c 0.0477,1.18626 0.11164,4.31842 0.1421,6.96052 l 0.0555,4.80389 h 2.35267 2.35293 v -4.90191 -4.90188 h 1.56881 1.56853 v 4.90188 4.90191 h 2.54897 2.54896 v -7.06837 -7.06836 l -1.07844,-0.3886 c -2.73511,-0.98571 -2.73637,-0.90422 0.0345,-2.55429 l 2.59863,-1.54755 0.007,-5.58801 0.006,-5.58803 h -8.235 -8.235 z m -0.7844,0.69915 -0.96317,0.24171 c -0.5297,0.13295 -1.41189,0.41243 -1.9606,0.62104 l -0.99769,0.37933 v 6.48025 6.48 h 1.96085 1.96061 v -7.10104 z m 18.0388,0 v 7.10129 7.10104 h 1.96086 1.96061 v -6.48 -6.48025 l -0.9977,-0.37933 c -0.54872,-0.20861 -1.43092,-0.48809 -1.9606,-0.62104 z m -9.11343,1.8501 c 0.59011,-0.0163 1.21064,0.0957 1.83231,0.35541 2.78937,1.16547 3.19052,4.95685 0.7294,6.89277 -2.55051,2.00625 -6.38915,0.1614 -6.38915,-3.07065 0,-2.42699 1.71991,-4.11949 3.82744,-4.17753 z m -0.54108,0.77058 c -0.13108,0 -0.33192,0.096 -0.63937,0.25978 -1.25233,0.66708 -1.83581,1.54785 -1.8501,2.79282 -0.007,0.59311 0.17218,1.07817 0.39817,1.07817 0.81822,0 2.33434,-2.08359 2.33434,-3.20825 0,-0.65797 -0.0246,-0.92287 -0.24304,-0.92252 z m 1.75765,0.18886 c -0.42481,-0.01 -0.73048,0.31574 -0.73048,1.00088 0,0.53918 0.17666,0.98044 0.39234,0.98044 0.21567,0 0.39207,0.25592 0.39207,0.56872 0,0.31282 0.30893,0.74824 0.68639,0.96767 1.56898,0.91224 2.06223,-0.31717 0.89197,-2.22278 -0.5163,-0.84076 -1.15083,-1.28352 -1.63229,-1.29493 z m -1.25827,4.19585 c -1.64675,0.0217 -2.76124,0.71845 -1.65195,1.5372 1.05308,0.77725 2.70366,0.70251 3.7828,-0.17133 l 0.90527,-0.73313 -0.95998,-0.31477 c -0.70605,-0.23143 -1.43177,-0.32642 -2.07614,-0.31797 z m -8.4916,7.94202 -2.25466,0.11767 c -1.99971,0.10428 -2.25984,0.21388 -2.29794,0.96795 -0.0615,1.21716 0.25909,1.57494 1.80839,2.01904 2.56643,0.73563 2.74421,0.64981 2.74421,-1.32044 z m 17.25467,0.0393 v 1.76457 c 0,1.96678 -0.0492,1.94334 2.71498,1.30529 1.902,-0.43903 1.99062,-0.51779 1.99062,-1.76483 v -1.30503 h -2.35268 z m -15.29381,14.90146 v 1.17647 1.17647 h 2.745 2.745 v -1.17647 -1.17647 h -2.745 z m 8.03924,0.19603 -0.12432,1.29229 -0.12432,1.29227 2.86932,-0.1158 2.86933,-0.11582 v -1.17648 -1.17646 h -2.74501 z"
     style="fill:#000000"
     inkscape:connector-curvature="0" />
  <path
     id="path3238"
     d="m 180.66399,46.183078 c -13.45667,-0.0126 -21.05958,11.48582 -13.37884,20.23375 l 3.05744,3.48213 -2.11558,2.86101 c -2.11391,2.85821 -2.11385,2.86162 -0.10631,2.86162 1.10498,0 3.72161,-0.87365 5.81452,-1.94139 2.09292,-1.06771 5.58701,-1.94138 7.76495,-1.94138 2.17799,0 5.70726,-0.89117 7.84244,-1.98044 13.64771,-6.96257 7.39684,-23.56024 -8.87862,-23.5753 z m 18.5765,24.72078 c -1.3988,-0.0385 -2.0762,0.48734 -2.50782,1.84709 -0.36591,1.15308 -0.18533,2.57537 0.40185,3.16255 2.30727,2.30721 1.11635,3.59085 -3.33134,3.59085 -3.34164,0 -4.52486,0.40817 -4.92434,1.6987 -0.28915,0.93427 -0.93055,2.45658 -1.42542,3.38363 -1.20235,2.25205 -1.15083,10.17839 0.0709,10.93349 0.53391,0.32994 0.97068,1.5934 0.97068,2.80756 0,1.21419 0.29104,2.498512 0.64693,2.854392 0.35592,0.35593 5.37946,0.64693 11.16295,0.64693 l 10.51545,0 0,-2.808142 c 0,-1.60071 0.62615,-3.04833 1.45603,-3.36679 1.02893,-0.39483 1.45605,-1.99995 1.45605,-5.47275 0,-3.47279 -0.42712,-5.07792 -1.45605,-5.47276 -0.80075,-0.30729 -1.45603,-1.60391 -1.45603,-2.88145 0,-2.14025 -0.38156,-2.32281 -4.85346,-2.32281 -5.29468,0 -5.68568,-0.38397 -3.19562,-3.13552 2.10621,-2.32733 0.68995,-4.98468 -2.88563,-5.4145 -0.23064,-0.0276 -0.4453,-0.045 -0.64511,-0.0504 z m -41.7043,4.20834 c -1.09049,0 -2.2019,0.15104 -3.28569,0.47575 -6.65853,1.99494 -8.218,10.26162 -3.47192,18.40471 1.06617,1.82931 1.73016,4.12382 1.47527,5.09851 -0.26594,1.017042 0.22183,2.172092 1.14486,2.710852 1.8562,1.08357 4.56113,1.22079 7.66584,0.38864 1.6986,-0.45526 2.05182,-1.07308 1.61283,-2.821982 -0.36297,-1.4462 0.15273,-3.21117 1.45721,-4.98502 2.47031,-3.35894 3.54364,-10.52693 2.12579,-14.19873 -1.19678,-3.09949 -4.82958,-5.06766 -8.72419,-5.07273 z m 36.84182,12.31986 c 1.14312,-0.063 2.43973,0.8455 2.66159,2.3931 0.16273,1.13519 -0.34734,2.2964 -1.14247,2.60154 -1.84789,0.70906 -3.91331,-1.7604 -3.14573,-3.76087 0.31032,-0.80865 0.94075,-1.19601 1.62661,-1.23377 z m 10.40191,0.1808 c 0.59658,-0.006 1.28766,0.31219 1.97323,0.99775 1.37724,1.37724 1.39575,1.73572 0.14955,2.91023 -1.80705,1.70317 -3.84792,0.98038 -3.84792,-1.3629 0,-1.62056 0.73085,-2.53424 1.72514,-2.54508 z m -37.64614,13.854582 -3.02379,3.09289 c -4.08553,4.17882 -8.58739,4.24306 -12.64964,0.18081 -3.40715,-3.4072 -3.88781,-3.46029 -9.25763,-1.02235 -4.47454,2.03143 -5.34232,3.98828 -6.59181,14.8547 l -0.64213,5.58088 22.49351,0 22.4935,0 -0.67936,-7.03691 c -0.91424,-9.46335 -2.00331,-11.44974 -7.52887,-13.73866 l -4.61378,-1.91136 z m 15.05172,3.75904 -0.27871,8.97891 -0.27932,8.97829 19.00058,0 19.00056,0 -0.2787,-8.97829 -0.2793,-8.97891 -18.44256,0 -18.44255,0 z"
     style="fill:#000000"
     inkscape:connector-curvature="0" />
  <path
     id="path3252"
     d="m 65.245284,146.68216 c -2.64216,-0.078 -4.28676,3.41893 -2.00049,5.9452 1.6712,1.84668 0.54662,2.62051 -3.80888,2.62051 -3.99491,0 -4.00014,0.002 -4.00014,2.02006 0,1.34667 -0.33671,2.01965 -1.01004,2.01965 -0.8016,0 -1.01004,0.97275 -1.01004,4.7135 0,3.74076 0.20844,4.71349 1.01004,4.71349 0.72946,0 1.01004,0.74823 1.01004,2.69342 l 0,2.69302 9.76326,0 9.76324,0 0,-2.69302 c 0,-1.94519 0.2806,-2.69342 1.01004,-2.69342 0.80156,0 1.01004,-0.97273 1.01004,-4.71349 0,-3.74075 -0.20848,-4.7135 -1.01004,-4.7135 -0.67337,0 -1.01004,-0.67298 -1.01004,-2.01965 0,-2.18967 -0.19685,-2.26822 -5.23144,-2.08381 -3.1572,0.11567 -4.74729,-1.55361 -2.61591,-2.74635 1.64799,-0.9223 1.44158,-4.37396 -0.31792,-5.3156 -0.5391,-0.2885 -1.06244,-0.42557 -1.55172,-0.44001 z m -4.80185,16.10346 c 0.89258,0.0134 1.81067,0.62404 1.55756,1.38422 -0.37478,1.1256 -2.28019,1.44596 -2.87509,0.48334 -0.26151,-0.4231 -0.15885,-1.08614 0.22834,-1.47337 0.28279,-0.28278 0.68348,-0.40025 1.08919,-0.39419 z m 9.72326,0.22125 c 0.58957,0.0347 1.09213,0.35534 1.09213,0.99421 0,0.55552 -0.70848,1.11031 -1.57464,1.23296 -1.22131,0.17294 -1.5217,-0.0539 -1.33754,-1.01004 0.16054,-0.83371 1.06205,-1.26176 1.82005,-1.21713 z m -26.514228,12.77753 -0.18668,10.4087 c -0.10263,5.72463 -0.0366,10.79983 0.14708,11.27829 0.37403,0.97465 5.468008,1.21841 6.042298,0.28918 0.19734,-0.31933 -0.10529,-3.23742 -0.67211,-6.4848 -0.566816,-3.24741 -0.871256,-6.31915 -0.676696,-6.82607 0.503296,-1.31164 33.261006,-1.3666 33.763656,-0.0567 0.18255,0.47575 -0.13016,3.27828 -0.6946,6.22812 -1.53121,8.00196 -1.5807,7.82937 2.17175,7.58859 l 3.19844,-0.20501 0,-11.11037 0,-11.10997 -21.54657,0 -21.546568,0 z m 21.605328,15.1501 c -1.3102,0 -2.63065,1.83422 -2.1751,3.02136 0.47069,1.22666 3.56377,1.36401 3.98932,0.17709 0.4212,-1.17468 -0.72679,-3.19845 -1.81422,-3.19845 z m 0.0654,10.11035 c -13.0879,-0.0106 -16.14087,0.49116 -14.56217,2.39341 0.64536,0.77761 3.44539,0.96295 14.54132,0.96295 11.97901,0 13.79533,-0.13829 14.15592,-1.07795 0.22753,-0.59287 -0.009,-1.34569 -0.52627,-1.67297 -0.5169,-0.32729 -6.64072,-0.60011 -13.6088,-0.60544 z"
     style="fill:#000000"
     inkscape:connector-curvature="0" />
  <path
     id="path3266"
     d="m 170.54677,183.24157 c -0.50814,-0.0145 -1.10979,0.29349 -1.81793,0.92624 l -1.06128,0.94838 0.97366,0.85562 c 0.53551,0.47059 1.03977,0.86013 1.12053,0.86593 0.0808,0.006 0.56326,-0.38822 1.07211,-0.87572 0.99227,-0.95068 1.16397,-1.71211 0.52934,-2.34676 -0.24017,-0.24018 -0.51157,-0.36498 -0.81643,-0.37369 z m -19.56627,0.008 c -0.42069,0.0105 -0.77667,0.22511 -1.00459,0.65099 -0.30077,0.56198 -0.2134,0.87906 0.49998,1.81432 1.03042,1.35099 1.45211,1.40326 2.4823,0.30668 l 0.77676,-0.82675 -0.94581,-0.98757 c -0.61985,-0.64698 -1.26775,-0.97118 -1.80864,-0.95767 z m 9.85605,1.16127 c -1.79192,-0.006 -2.5597,0.17945 -4.30694,1.03961 -3.08294,1.51772 -5.07771,4.1986 -5.44759,7.32171 -0.32761,2.76623 0.11781,4.36291 2.09265,7.49488 2.19473,3.48075 2.76966,4.94191 2.91116,7.40054 0.14953,2.59823 0.93596,3.90596 2.35501,3.91626 0.38598,0.003 0.88693,0.22782 1.1128,0.49996 0.52176,0.62858 2.1067,0.64141 2.62149,0.0211 0.21619,-0.26049 0.83667,-0.57097 1.3793,-0.69015 1.0193,-0.22387 1.64297,-1.18903 1.80606,-2.79468 0.37719,-3.7133 0.88034,-5.04047 3.23072,-8.52832 1.50753,-2.23714 2.3193,-4.95022 2.05605,-6.87067 -0.6948,-5.06917 -4.84228,-8.79365 -9.81071,-8.81027 z m 0.1799,5.39964 c 0.17354,0.008 0.0938,0.69828 -0.0174,1.90349 l -0.22063,2.3916 h 1.86175 c 1.02393,0 1.86173,0.0746 1.86173,0.16546 0,0.0908 -1.03932,1.74413 -2.30913,3.67398 l -2.3086,3.50856 0.21286,-2.51944 0.21287,-2.51943 h -1.69163 -1.69166 l 1.69424,-2.88641 c 1.53099,-2.60829 2.17259,-3.72765 2.39572,-3.71781 z m -11.68895,2.93951 -1.56691,0.10052 c -1.35286,0.0868 -1.58195,0.20542 -1.67566,0.86694 -0.0597,0.42142 -0.0272,0.9781 0.0721,1.23704 0.11973,0.31201 0.68511,0.47058 1.67566,0.47058 h 1.49476 v -1.33752 -1.33756 z m 22.76142,0 v 1.35558 1.35558 l 1.5329,-0.1005 c 1.02195,-0.067 1.65392,-0.29298 1.89523,-0.6778 0.61607,-0.9825 -0.14428,-1.71749 -1.89523,-1.83234 z m -2.23077,8.56492 -0.86388,0.86385 c -1.07576,1.07574 -1.07537,1.27931 0.005,2.12925 0.98187,0.77237 1.78186,0.86954 2.36376,0.2876 0.63867,-0.63866 0.46117,-1.39729 -0.55462,-2.37046 l -0.95044,-0.91024 z m -18.26688,0.0479 c -0.13823,0 -0.63994,0.5101 -1.11538,1.13343 -0.71338,0.93529 -0.80075,1.25234 -0.49998,1.81432 0.50151,0.93713 1.60997,0.85277 2.71582,-0.20669 l 0.92674,-0.88755 -0.88758,-0.92677 c -0.48824,-0.50964 -1.00137,-0.92674 -1.13962,-0.92674 z"
     style="fill:#000000"
     inkscape:connector-curvature="0" />
  <path
     inkscape:connector-curvature="0"
     style="fill:#000000"
     d="m 199.66531,229.02427 c -0.51884,0 -0.59297,2.37195 -0.59297,18.97557 l 0,18.97557 26.68438,0 c 23.45591,0 26.68441,-0.0718 26.68441,-0.59301 0,-0.49298 -0.77239,-0.59297 -4.58083,-0.59297 l -4.58083,0 0.26684,-1.58129 c 0.24082,-1.42523 0.18553,-1.5813 -0.55839,-1.5813 -0.69944,0 -0.82523,0.24133 -0.82523,1.5813 l 0,1.58129 -5.3369,0 -5.33686,0 0,-1.58129 c 0,-1.14204 -0.16474,-1.5813 -0.593,-1.5813 -0.42826,0 -0.59297,0.43926 -0.59297,1.5813 l 0,1.58129 -4.74389,0 -4.74389,0 0,-1.58129 c 0,-1.14204 -0.16475,-1.5813 -0.593,-1.5813 -0.42826,0 -0.59298,0.43926 -0.59298,1.5813 l 0,1.58129 -4.74388,0 -4.7439,0 0,-1.58129 c 0,-1.14204 -0.16475,-1.5813 -0.593,-1.5813 -0.42826,0 -0.59297,0.43926 -0.59297,1.5813 l 0,1.58129 -4.34857,0 -4.34857,0 0,-2.76726 0,-2.76728 1.38362,0 c 0.96636,0 1.38366,-0.17887 1.38366,-0.593 0,-0.41417 -0.4173,-0.59297 -1.38366,-0.59297 l -1.38362,0 0,-3.36027 0,-3.36024 1.38362,0 c 0.96636,0 1.38366,-0.17887 1.38366,-0.59301 0,-0.41417 -0.4173,-0.59296 -1.38366,-0.59296 l -1.38362,0 0,-3.1626 0,-3.16259 1.38362,0 c 1.12011,0 1.38366,-0.15063 1.38366,-0.79065 0,-0.64003 -0.26355,-0.79065 -1.38366,-0.79065 l -1.38362,0 0,-3.36028 0,-3.36024 1.38362,0 c 0.96636,0 1.38366,-0.17887 1.38366,-0.593 0,-0.41417 -0.4173,-0.59297 -1.38366,-0.59297 l -1.38362,0 0,-3.16259 c 0,-2.54762 -0.11532,-3.1626 -0.593,-3.1626 z m 30.20113,2.76807 c -1.20626,0 -1.22497,0.0291 -1.06406,1.68014 0.12941,1.32779 -0.14675,2.35432 -1.31775,4.89625 -0.81494,1.76895 -1.75748,3.87582 -2.0944,4.68212 l -0.61274,1.46601 -2.56221,-3.10083 c -2.14858,-2.60032 -2.56444,-3.34471 -2.57456,-4.60882 -0.0114,-1.46061 -0.0515,-1.50367 -1.29633,-1.38366 -1.2717,0.12263 -1.28528,0.14654 -1.33503,2.29866 -0.0596,2.57524 -2.45987,8.8182 -3.46899,9.02246 -0.34729,0.0703 -0.63648,0.51504 -0.64239,0.98829 -0.008,0.67367 -0.99516,1.44333 -4.54625,3.54641 -2.49469,1.47744 -4.53549,2.94509 -4.53549,3.26144 0,0.73684 0.19666,0.72942 5.33685,-0.21498 2.36688,-0.43488 4.98105,-0.79065 5.8088,-0.79065 1.40866,0 1.50472,-0.0762 1.50472,-1.18597 0,-1.71235 1.97633,-5.12944 2.96492,-5.12522 0.93089,0.004 2.96495,2.6807 2.96495,3.90303 0,0.65457 0.24647,0.82687 1.18597,0.82687 0.98171,0 1.18597,-0.16066 1.18597,-0.93065 0,-0.61839 1.07191,-2.07614 3.19802,-4.34856 1.75907,-1.88015 3.3623,-3.41793 3.56286,-3.41793 0.63167,0 2.33158,4.37712 2.33158,6.004 0,1.51864 0.0317,1.55384 1.28478,1.43303 0.76045,-0.0733 1.28481,-0.34404 1.28481,-0.66296 0,-0.29868 1.22511,-1.02393 2.74998,-1.62827 1.51257,-0.59946 2.81716,-1.2911 2.89905,-1.53681 0.2218,-0.66533 -0.37057,-0.55236 -2.85047,0.54439 -3.19043,1.41093 -3.99646,1.10993 -5.41841,-2.02605 -0.6248,-1.37805 -1.13571,-3.04338 -1.13571,-3.7004 0,-1.06386 -0.12987,-1.1942 -1.18598,-1.1942 -1.05997,0 -1.18597,0.12849 -1.18597,1.21233 0,0.9573 -0.60342,1.86365 -2.86611,4.30572 -1.80656,1.94989 -3.18908,3.10926 -3.73912,3.13629 -1.04272,0.0509 -2.98439,-2.19624 -3.27952,-3.79512 -0.19338,-1.04754 -0.47519,-1.16105 -2.3703,-0.95047 -0.21742,0.0241 -0.39533,0.69536 -0.39533,1.49157 0,1.88423 -1.67764,4.78007 -2.86695,4.94896 -0.53507,0.076 -0.93435,0.44415 -1.00313,0.92407 -0.0967,0.67447 -0.67283,0.90019 -3.73992,1.46516 -1.99416,0.36728 -3.68016,0.61241 -3.74734,0.54523 -0.34788,-0.34788 6.60338,-4.14633 7.79365,-4.25879 1.34398,-0.12705 1.37531,-0.16922 1.26833,-1.71143 -0.076,-1.09493 0.33131,-2.67555 1.32433,-5.13922 0.7887,-1.95684 1.56426,-3.69534 1.72378,-3.86266 0.15952,-0.16728 1.60816,1.30194 3.21859,3.26472 1.61043,1.96284 3.10124,3.51086 3.31334,3.44015 0.34283,-0.11423 1.52935,-2.57946 4.19866,-8.72514 l 0.83758,-1.92884 1.94369,1.914 c 1.20352,1.18547 1.94369,2.25915 1.94369,2.81918 0,0.74127 0.21383,0.90429 1.18598,0.90429 0.90597,0 1.18597,-0.17951 1.18597,-0.75936 0,-0.43116 1.0461,-1.69043 2.42137,-2.91549 1.33171,-1.18622 2.34752,-2.37853 2.25746,-2.64869 -0.0995,-0.29838 -1.03329,0.30398 -2.37772,1.53271 -2.84415,2.59941 -3.98508,2.6826 -6.01058,0.44062 -1.06841,-1.18264 -1.42975,-1.93167 -1.42975,-2.96491 0,-1.28292 -0.088,-1.38202 -1.22717,-1.38202 z m 0.19768,0.45217 c 0.17947,0.027 0.2434,0.21873 0.17787,0.55675 -0.0751,0.38747 -0.37618,0.78382 -0.66874,0.88122 -0.34022,0.1133 -0.48266,-0.0764 -0.39533,-0.5271 0.0752,-0.38748 0.37618,-0.78466 0.66874,-0.88206 0.0851,-0.0283 0.15763,-0.038 0.21746,-0.0286 z m -11.81857,3.8964 c 0.32617,0 0.59301,0.17791 0.59301,0.39533 0,0.21741 -0.26684,0.39532 -0.59301,0.39532 -0.32612,0 -0.59297,-0.17791 -0.59297,-0.39532 0,-0.21742 0.26685,-0.39533 0.59297,-0.39533 z m 16.77824,1.97663 c 0.23024,0 0.41839,0.1779 0.41839,0.39532 0,0.21742 -0.0787,0.39533 -0.17461,0.39533 -0.0959,0 -0.28401,-0.17791 -0.4184,-0.39533 -0.13434,-0.21742 -0.0556,-0.39532 0.17462,-0.39532 z m -3.36686,2.81175 c 0.16214,0.0139 0.22734,0.1532 0.1532,0.37555 -0.0951,0.28539 -0.40646,0.59671 -0.6918,0.69181 -0.29649,0.0988 -0.44475,-0.0494 -0.34591,-0.34591 0.0951,-0.28539 0.40642,-0.59671 0.6918,-0.69181 0.0741,-0.0248 0.13865,-0.0341 0.19271,-0.0295 z m -16.9273,7.07135 c 0.0855,0 0.15569,0.26684 0.15569,0.59301 0,0.32613 -0.17235,0.59296 -0.38298,0.59296 -0.21058,0 -0.28083,-0.26683 -0.15568,-0.59296 0.12515,-0.32617 0.29754,-0.59301 0.38297,-0.59301 z m 20.67958,2.0252 c 0.13734,0.006 0.25553,0.0422 0.32123,0.10791 0.13135,0.13135 -0.10213,0.22441 -0.51887,0.20755 -0.46052,-0.019 -0.55422,-0.11263 -0.23884,-0.23884 0.14269,-0.0571 0.29918,-0.0823 0.43648,-0.0766 z m -20.50083,1.53272 c 0.23028,0 0.30897,0.17791 0.17458,0.39533 -0.13435,0.21741 -0.32251,0.39532 -0.4184,0.39532 -0.0959,0 -0.17457,-0.17791 -0.17457,-0.39532 0,-0.21742 0.18816,-0.39533 0.41839,-0.39533 z"
     id="path3280" />
  <g
     id="g4724"
     transform="matrix(0.54876973,0,0,0.54876973,-37.233248,-90.249612)">
    <path
       style="fill:none;fill-rule:evenodd;stroke:#000000;stroke-width:2.5;stroke-linecap:round;stroke-linejoin:round;stroke-miterlimit:4;stroke-dasharray:none;stroke-opacity:1"
       d="m 415.5994,627.03299 8.53709,-4.3625 -4.18318,-8.18614"
       id="path4708"
       inkscape:connector-curvature="0"
       sodipodi:nodetypes="ccc" />
    <path
       sodipodi:nodetypes="csccccc"
       inkscape:connector-curvature="0"
       id="path4714"
       d="m 382.54678,484.43432 c 15.78782,-18.75835 39.44077,-30.67809 65.87772,-30.67809 15.65548,0 30.33468,4.18001 42.98239,11.48485 m 43.08365,74.58119 c 0,24.19233 -9.98158,46.05334 -26.05108,61.68935 m -86.38185,20.26272 c -24.60176,-7.90907 -44.37452,-26.58871 -53.76578,-50.48644"
       style="opacity:1;fill:none;fill-opacity:1;stroke:#000000;stroke-width:2.5;stroke-linecap:round;stroke-linejoin:round;stroke-miterlimit:4;stroke-dasharray:none" />
    <path
       sodipodi:nodetypes="ccc"
       inkscape:connector-curvature="0"
       id="path4719"
       d="m 541.26491,544.97397 -6.83388,-6.72394 -6.44753,6.55296"
       style="fill:none;fill-rule:evenodd;stroke:#000000;stroke-width:2.5;stroke-linecap:round;stroke-linejoin:round;stroke-miterlimit:4;stroke-dasharray:none;stroke-opacity:1" />
    <path
       style="fill:none;fill-rule:evenodd;stroke:#000000;stroke-width:2.5;stroke-linecap:round;stroke-linejoin:round;stroke-miterlimit:4;stroke-dasharray:none;stroke-opacity:1"
       d="m 380.85573,476.38904 -0.14617,9.58603 9.19197,0.14015"
       id="path4721"
       inkscape:connector-curvature="0"
       sodipodi:nodetypes="ccc" />
  </g>
  <g
     style="font-style:normal;font-variant:normal;font-weight:normal;font-stretch:normal;letter-spacing:normal;word-spacing:normal;text-anchor:start;fill:#000000;fill-opacity:1;fill-rule:evenodd;stroke:#000000;stroke-linecap:butt;stroke-linejoin:miter;stroke-miterlimit:10.43299961;stroke-dasharray:none;stroke-dashoffset:0;stroke-opacity:1"
     ns0:jacobian_sqrt="1.0"
     inkscapeversion="0.91"
     ns0:alignment="middle center"
     ns0:scale="0.750000000002"
     ns0:preamble="/home/adin/.config/inkscape/extensions/beamer_packages.tex"
     ns0:text="\\textbf{Reinforcement}\n\n\\textbf{Learning}"
     ns0:pdfconverter="pstoedit"
     ns0:texconverter="pdflatex"
     ns0:version="0.8.0"
     word-spacing="normal"
     letter-spacing="normal"
     font-size-adjust="none"
     font-stretch="normal"
     font-weight="normal"
     font-variant="normal"
     font-style="normal"
     stroke-miterlimit="10.433"
     xml:space="preserve"
     transform="matrix(1,0,0,-1,28.200418,911.40855)"
     id="g1190">
<path
   id="path1144"
   style="fill:#000000;fill-opacity:1;stroke:#000000;stroke-width:0;stroke-opacity:1"
   d="m 153.53,710.3 0.06,0.02 0.06,0.01 0.06,0.02 0.07,0.02 0.06,0.02 0.07,0.03 0.06,0.02 0.07,0.03 0.07,0.03 0.06,0.03 0.07,0.03 0.06,0.04 0.07,0.04 0.06,0.04 0.06,0.05 0.06,0.05 0.06,0.05 0.06,0.05 0.05,0.06 0.05,0.06 0.05,0.07 0.05,0.07 0.04,0.07 0.04,0.08 0.03,0.08 0.03,0.09 0.03,0.08 0.02,0.1 0.02,0.1 0.01,0.1 0.01,0.05 v 0.06 0.05 0.06 c 0,1.96 -2.16,1.96 -2.61,1.96 h -2.39 c -0.36,0 -0.48,-0.11 -0.48,-0.48 v -5.94 c 0,-0.36 0.11,-0.48 0.48,-0.48 h 0.48 c 0.38,0 0.47,0.13 0.47,0.48 v 2.61 0.72 2.23 h 1.3 c 1.16,0 1.37,-0.45 1.37,-1.11 0,-0.58 -0.14,-1.12 -1.37,-1.12 h -1.3 v -0.72 h 1.11 l 1.64,-2.85 c 0.14,-0.24 0.25,-0.24 0.47,-0.24 h 0.58 c 0.2,0 0.37,0 0.37,0.3 z"
   inkscape:connector-curvature="0" />
<path
   id="path1146"
   style="fill:#000000;fill-opacity:1;stroke:#000000;stroke-width:0;stroke-opacity:1"
   d="m 160.01,709.25 h 0.05 0.04 0.02 0.02 l 0.02,0.01 h 0.02 0.02 l 0.02,0.01 h 0.02 l 0.02,0.01 h 0.02 l 0.02,0.01 0.02,0.01 0.02,0.01 0.01,0.01 0.02,0.02 0.01,0.01 0.02,0.02 0.01,0.01 0.01,0.01 0.01,0.01 v 0.01 l 0.01,0.02 v 0.01 l 0.01,0.01 v 0.01 l 0.01,0.01 v 0.02 l 0.01,0.01 v 0.01 0.02 l 0.01,0.01 v 0.02 0.02 0.01 l 0.01,0.02 v 0.02 0.02 0.02 0.02 0.02 c 0,1.28 -0.6,2.13 -2.08,2.13 -1.6,0 -2.39,-0.89 -2.39,-2.4 0,-1.63 0.95,-2.42 2.52,-2.42 0.37,0 0.94,0.05 1.6,0.37 0.22,0.11 0.29,0.14 0.29,0.26 0,0.07 -0.03,0.36 -0.04,0.44 -0.04,0.31 -0.05,0.32 -0.14,0.32 -0.04,0 -0.06,0 -0.17,-0.1 -0.59,-0.51 -1.18,-0.58 -1.5,-0.58 -1.13,0 -1.25,0.88 -1.28,1.52 l 0.01,0.53 c 0.03,0.6 0.23,1.35 1.1,1.35 0.79,0 0.94,-0.58 0.97,-1.35 h -2.07 l -0.01,-0.53 z"
   inkscape:connector-curvature="0" />
<path
   id="path1148"
   style="fill:#000000;fill-opacity:1;stroke:#000000;stroke-width:0;stroke-opacity:1"
   d="m 161.82,714.03 h -0.03 -0.02 -0.03 -0.03 l -0.02,-0.01 h -0.03 -0.02 l -0.03,-0.01 h -0.02 L 161.57,714 h -0.02 l -0.02,-0.01 -0.02,-0.01 -0.01,-0.01 -0.02,-0.01 -0.02,-0.01 -0.01,-0.01 -0.01,-0.02 -0.02,-0.01 -0.01,-0.02 -0.01,-0.02 -0.01,-0.02 -0.01,-0.02 -0.01,-0.02 v -0.02 l -0.01,-0.03 v -0.03 l -0.01,-0.01 v -0.01 -0.02 -0.01 -0.02 -0.02 -0.01 l -0.01,-0.02 v -0.02 -0.02 -0.46 c 0,-0.31 0.1,-0.44 0.47,-0.44 h 0.52 c 0.48,0 0.48,0.21 0.48,0.67 0,0.48 0,0.69 -0.48,0.69 z"
   inkscape:connector-curvature="0" />
<path
   id="path1150"
   style="fill:#000000;fill-opacity:1;stroke:#000000;stroke-width:0;stroke-opacity:1"
   d="m 162.74,711.2 v 0.03 0.03 0.02 0.03 l -0.01,0.03 v 0.02 0.02 l -0.01,0.03 v 0.02 l -0.01,0.02 -0.01,0.02 v 0.02 l -0.01,0.02 -0.01,0.01 -0.01,0.02 -0.02,0.02 -0.01,0.01 -0.01,0.01 -0.02,0.02 -0.02,0.01 -0.02,0.01 -0.02,0.01 -0.02,0.01 -0.02,0.01 h -0.03 l -0.02,0.01 h -0.03 l -0.03,0.01 h -0.02 -0.01 -0.02 -0.02 -0.01 -0.02 -0.02 -0.02 -0.37 c -0.36,0 -0.48,-0.1 -0.48,-0.47 v -3.6 c 0,-0.36 0.11,-0.48 0.48,-0.48 h 0.37 c 0.38,0 0.48,0.13 0.48,0.48 z"
   inkscape:connector-curvature="0" />
<path
   id="path1152"
   style="fill:#000000;fill-opacity:1;stroke:#000000;stroke-width:0;stroke-opacity:1"
   d="m 168.34,710.35 v 0.1 l -0.01,0.09 v 0.09 l -0.01,0.08 -0.01,0.08 -0.02,0.08 -0.02,0.07 -0.02,0.07 -0.02,0.07 -0.02,0.06 -0.03,0.06 -0.03,0.06 -0.04,0.05 -0.04,0.05 -0.04,0.05 -0.04,0.04 -0.04,0.04 -0.05,0.04 -0.06,0.04 -0.05,0.03 -0.06,0.03 -0.06,0.03 -0.06,0.02 -0.07,0.02 -0.07,0.02 -0.08,0.02 -0.07,0.01 -0.08,0.01 -0.09,0.01 -0.08,0.01 h -0.09 -0.1 c -1.04,0 -1.49,-0.75 -1.62,-1.02 h -0.01 v 0.5 c 0,0.32 -0.07,0.47 -0.48,0.47 h -0.34 c -0.36,0 -0.48,-0.11 -0.48,-0.47 v -3.66 c 0,-0.36 0.11,-0.48 0.48,-0.48 h 0.4 c 0.38,0 0.48,0.13 0.48,0.48 v 2.2 c 0,0.86 0.57,1.27 1.09,1.27 0.48,0 0.58,-0.23 0.58,-0.74 v -2.73 c 0,-0.32 0.07,-0.48 0.48,-0.48 h 0.4 c 0.38,0 0.48,0.13 0.48,0.48 z"
   inkscape:connector-curvature="0" />
<path
   id="path1154"
   style="fill:#000000;fill-opacity:1;stroke:#000000;stroke-width:0;stroke-opacity:1"
   d="m 171.13,710.96 h 0.47 c 0.12,0 0.48,0 0.48,0.36 0,0.35 -0.36,0.35 -0.48,0.35 h -0.5 v 1.09 c 0,0.26 0,0.65 0.64,0.65 0.32,0 0.52,-0.09 0.72,-0.27 0.07,-0.09 0.1,-0.1 0.15,-0.1 0.13,0 0.13,0.1 0.13,0.25 v 0.46 c 0,0.24 -0.01,0.25 -0.35,0.32 -0.29,0.06 -0.5,0.06 -0.65,0.06 -0.74,0 -1.94,-0.17 -1.94,-1.66 v -0.8 c -0.21,0 -0.56,0 -0.56,-0.35 0,-0.36 0.34,-0.36 0.56,-0.36 v -3.36 c 0,-0.36 0.11,-0.48 0.48,-0.48 h 0.37 c 0.38,0 0.48,0.13 0.48,0.48 z"
   inkscape:connector-curvature="0" />
<path
   id="path1156"
   style="fill:#000000;fill-opacity:1;stroke:#000000;stroke-width:0;stroke-opacity:1"
   d="m 177.46,709.36 -0.01,0.15 v 0.15 l -0.02,0.14 -0.01,0.13 -0.02,0.14 -0.03,0.12 -0.03,0.13 -0.03,0.12 -0.04,0.11 -0.05,0.11 -0.05,0.1 -0.05,0.1 -0.06,0.1 -0.06,0.09 -0.07,0.08 -0.08,0.08 -0.07,0.08 -0.09,0.07 -0.08,0.07 -0.1,0.06 -0.09,0.05 -0.1,0.06 -0.11,0.04 -0.11,0.04 -0.12,0.04 -0.12,0.03 -0.13,0.03 -0.13,0.02 -0.13,0.02 -0.14,0.01 -0.15,0.01 h -0.15 l -0.01,-0.71 c 1.08,0 1.08,-0.88 1.08,-1.65 0,-0.79 0,-1.69 -1.07,-1.69 v 0 c -1.07,0 -1.07,0.89 -1.07,1.69 0,0.76 0,1.65 1.06,1.65 l 0.01,0.71 c -1.66,0 -2.43,-0.88 -2.43,-2.48 0,-1.62 0.86,-2.34 2.42,-2.34 1.57,0 2.44,0.71 2.44,2.34 z"
   inkscape:connector-curvature="0" />
<path
   id="path1158"
   style="fill:#000000;fill-opacity:1;stroke:#000000;stroke-width:0;stroke-opacity:1"
   d="m 179.4,709.41 v 0.09 0.08 l 0.02,0.08 0.01,0.08 0.02,0.07 0.02,0.07 0.03,0.07 0.03,0.07 0.03,0.06 0.04,0.06 0.04,0.05 0.04,0.06 0.04,0.05 0.05,0.05 0.05,0.04 0.05,0.04 0.05,0.04 0.05,0.04 0.06,0.04 0.06,0.03 0.06,0.03 0.05,0.03 0.06,0.02 0.07,0.02 0.06,0.02 0.06,0.02 0.06,0.02 0.06,0.01 0.06,0.01 0.06,0.01 0.06,0.01 h 0.06 c 0.18,0.01 0.2,0.01 0.2,0.27 v 0.47 c 0,0.19 0,0.26 -0.18,0.26 -0.28,0 -1.01,-0.1 -1.47,-1.17 h -0.01 v 0.65 c 0,0.32 -0.07,0.47 -0.48,0.47 h -0.32 c -0.36,0 -0.48,-0.11 -0.48,-0.47 v -3.66 c 0,-0.36 0.11,-0.48 0.48,-0.48 h 0.37 c 0.38,0 0.48,0.13 0.48,0.48 z"
   inkscape:connector-curvature="0" />
<path
   id="path1160"
   style="fill:#000000;fill-opacity:1;stroke:#000000;stroke-width:0;stroke-opacity:1"
   d="m 185.73,707.62 v 0.01 0.02 l -0.01,0.01 v 0.02 0.02 0.02 0.02 0.02 0.02 0.03 l -0.01,0.02 v 0.03 0.02 0.03 l -0.01,0.05 v 0.06 l -0.01,0.05 v 0.03 0.02 0.03 l -0.01,0.02 v 0.02 0.02 0.03 l -0.01,0.01 v 0.02 0.02 0.01 0.02 c 0,0.03 -0.02,0.13 -0.12,0.13 -0.04,0 -0.06,0 -0.16,-0.1 -0.17,-0.15 -0.64,-0.56 -1.46,-0.56 -1.04,0 -1.04,1 -1.04,1.64 0,0.8 0.05,1.64 1.07,1.64 0.65,0 0.92,-0.16 1.28,-0.46 0.12,-0.11 0.14,-0.11 0.18,-0.11 0.1,0 0.12,0.09 0.13,0.13 0.02,0.08 0.12,0.64 0.12,0.69 0,0.09 -0.07,0.13 -0.24,0.21 -0.48,0.21 -0.78,0.31 -1.48,0.31 -1.49,0 -2.41,-0.69 -2.41,-2.43 0,-1.65 0.86,-2.39 2.36,-2.39 0.27,0 0.87,0.01 1.54,0.34 0.28,0.15 0.29,0.16 0.29,0.26 z"
   inkscape:connector-curvature="0" />
<path
   id="path1162"
   style="fill:#000000;fill-opacity:1;stroke:#000000;stroke-width:0;stroke-opacity:1"
   d="m 190.34,709.25 h 0.04 0.04 0.03 0.02 l 0.02,0.01 h 0.02 0.02 l 0.02,0.01 h 0.02 l 0.02,0.01 h 0.02 l 0.02,0.01 0.02,0.01 0.01,0.01 0.02,0.01 0.02,0.02 0.01,0.01 0.02,0.02 0.01,0.01 0.01,0.01 v 0.01 l 0.01,0.01 v 0.02 l 0.01,0.01 v 0.01 l 0.01,0.01 v 0.01 l 0.01,0.02 v 0.01 l 0.01,0.01 v 0.02 0.01 0.02 l 0.01,0.02 v 0.01 0.02 0.02 0.02 l 0.01,0.02 v 0.02 0.02 c 0,1.28 -0.6,2.13 -2.09,2.13 -1.59,0 -2.38,-0.89 -2.38,-2.4 0,-1.63 0.95,-2.42 2.51,-2.42 0.38,0 0.95,0.05 1.61,0.37 0.22,0.11 0.29,0.14 0.29,0.26 0,0.07 -0.03,0.36 -0.04,0.44 -0.04,0.31 -0.05,0.32 -0.14,0.32 -0.04,0 -0.06,0 -0.17,-0.1 -0.59,-0.51 -1.19,-0.58 -1.51,-0.58 -1.13,0 -1.25,0.88 -1.28,1.52 l 0.01,0.53 c 0.03,0.6 0.24,1.35 1.1,1.35 0.8,0 0.95,-0.58 0.98,-1.35 h -2.08 l -0.01,-0.53 z"
   inkscape:connector-curvature="0" />
<path
   id="path1164"
   style="fill:#000000;fill-opacity:1;stroke:#000000;stroke-width:0;stroke-opacity:1"
   d="m 199.17,710.35 v 0.1 l -0.01,0.09 v 0.09 l -0.01,0.08 -0.01,0.08 -0.02,0.08 -0.02,0.07 -0.02,0.07 -0.02,0.07 -0.02,0.06 -0.03,0.06 -0.03,0.06 -0.04,0.05 -0.03,0.05 -0.04,0.05 -0.05,0.04 -0.04,0.04 -0.05,0.04 -0.05,0.04 -0.06,0.03 -0.06,0.03 -0.06,0.03 -0.06,0.02 -0.07,0.02 -0.07,0.02 -0.07,0.02 -0.08,0.01 -0.08,0.01 -0.09,0.01 -0.08,0.01 h -0.09 -0.1 c -0.7,0 -1.25,-0.32 -1.61,-0.98 -0.16,0.95 -1.01,0.98 -1.43,0.98 -0.19,0 -0.61,0 -1.05,-0.32 -0.31,-0.23 -0.51,-0.55 -0.58,-0.7 h -0.01 v 0.5 c 0,0.32 -0.07,0.47 -0.48,0.47 h -0.34 c -0.36,0 -0.48,-0.11 -0.48,-0.47 v -3.66 c 0,-0.36 0.11,-0.48 0.48,-0.48 h 0.4 c 0.38,0 0.48,0.13 0.48,0.48 v 2.2 c 0,0.89 0.6,1.27 1.09,1.27 0.48,0 0.59,-0.21 0.59,-0.74 v -2.73 c 0,-0.36 0.11,-0.48 0.48,-0.48 h 0.4 c 0.38,0 0.48,0.13 0.48,0.48 v 2.2 c 0,0.89 0.61,1.27 1.1,1.27 0.47,0 0.58,-0.21 0.58,-0.74 v -2.73 c 0,-0.36 0.11,-0.48 0.48,-0.48 h 0.4 c 0.38,0 0.48,0.13 0.48,0.48 z"
   inkscape:connector-curvature="0" />
<path
   id="path1166"
   style="fill:#000000;fill-opacity:1;stroke:#000000;stroke-width:0;stroke-opacity:1"
   d="m 204.06,709.25 h 0.05 0.04 0.02 0.02 l 0.02,0.01 h 0.03 0.02 l 0.02,0.01 h 0.02 l 0.02,0.01 h 0.02 l 0.01,0.01 0.02,0.01 0.02,0.01 0.02,0.01 0.01,0.02 0.02,0.01 0.01,0.02 0.02,0.01 v 0.01 l 0.01,0.01 v 0.01 l 0.01,0.02 0.01,0.01 v 0.01 l 0.01,0.01 v 0.01 0.02 l 0.01,0.01 v 0.01 l 0.01,0.02 v 0.01 0.02 0.02 l 0.01,0.01 v 0.02 0.02 0.02 0.02 0.02 0.02 c 0,1.28 -0.59,2.13 -2.08,2.13 -1.6,0 -2.39,-0.89 -2.39,-2.4 0,-1.63 0.95,-2.42 2.52,-2.42 0.38,0 0.95,0.05 1.6,0.37 0.22,0.11 0.29,0.14 0.29,0.26 0,0.07 -0.03,0.36 -0.04,0.44 -0.04,0.31 -0.05,0.32 -0.14,0.32 -0.04,0 -0.06,0 -0.17,-0.1 -0.58,-0.51 -1.18,-0.58 -1.5,-0.58 -1.13,0 -1.25,0.88 -1.28,1.52 l 0.01,0.53 c 0.03,0.6 0.23,1.35 1.1,1.35 0.8,0 0.95,-0.58 0.98,-1.35 h -2.08 l -0.01,-0.53 z"
   inkscape:connector-curvature="0" />
<path
   id="path1168"
   style="fill:#000000;fill-opacity:1;stroke:#000000;stroke-width:0;stroke-opacity:1"
   d="m 209.84,710.35 v 0.1 0.09 l -0.01,0.09 -0.01,0.08 -0.01,0.08 -0.01,0.08 -0.02,0.07 -0.02,0.07 -0.02,0.07 -0.03,0.06 -0.03,0.06 -0.03,0.06 -0.03,0.05 -0.04,0.05 -0.04,0.05 -0.04,0.04 -0.05,0.04 -0.05,0.04 -0.05,0.04 -0.05,0.03 -0.06,0.03 -0.06,0.03 -0.07,0.02 -0.07,0.02 -0.07,0.02 -0.07,0.02 -0.08,0.01 -0.08,0.01 -0.08,0.01 -0.09,0.01 h -0.09 -0.09 c -1.05,0 -1.5,-0.75 -1.63,-1.02 h -0.01 v 0.5 c 0,0.32 -0.07,0.47 -0.48,0.47 h -0.34 c -0.35,0 -0.47,-0.11 -0.47,-0.47 v -3.66 c 0,-0.36 0.11,-0.48 0.47,-0.48 h 0.4 c 0.38,0 0.48,0.13 0.48,0.48 v 2.2 c 0,0.86 0.58,1.27 1.1,1.27 0.48,0 0.58,-0.23 0.58,-0.74 v -2.73 c 0,-0.32 0.07,-0.48 0.48,-0.48 h 0.4 c 0.37,0 0.47,0.13 0.47,0.48 z"
   inkscape:connector-curvature="0" />
<path
   id="path1170"
   style="fill:#000000;fill-opacity:1;stroke:#000000;stroke-width:0;stroke-opacity:1"
   d="m 212.62,710.96 h 0.89 c 0.12,0 0.48,0 0.48,0.36 0,0.35 -0.36,0.35 -0.48,0.35 h -0.89 v 0.83 c 0,0.32 -0.07,0.48 -0.48,0.48 h -0.31 c -0.35,0 -0.47,-0.11 -0.47,-0.48 v -0.83 h -0.23 c -0.11,0 -0.48,0 -0.48,-0.35 0,-0.36 0.36,-0.36 0.48,-0.36 h 0.2 v -2.51 c 0,-1.01 0.35,-1.43 1.04,-1.43 0.09,0 0.53,0 1.05,0.15 0.17,0.05 0.75,0.23 0.75,0.42 0,0.03 -0.02,0.1 -0.08,0.31 -0.05,0.2 -0.07,0.26 -0.16,0.26 -0.05,0 -0.06,-0.01 -0.12,-0.07 -0.11,-0.08 -0.38,-0.3 -0.8,-0.3 -0.24,0 -0.39,0.17 -0.39,0.82 z"
   inkscape:connector-curvature="0" />
<path
   id="path1172"
   style="fill:#000000;fill-opacity:1;stroke:#000000;stroke-width:0;stroke-opacity:1"
   d="m 151.09,696.17 v 5.42 c 0,0.32 -0.07,0.47 -0.48,0.47 h -0.51 c -0.36,0 -0.48,-0.1 -0.48,-0.47 v -5.94 c 0,-0.36 0.11,-0.48 0.48,-0.48 h 3.46 c 0.38,0 0.48,0.13 0.48,0.48 v 0.09 c 0,0.23 -0.01,0.47 -0.47,0.47 z"
   inkscape:connector-curvature="0" />
<path
   id="path1174"
   style="fill:#000000;fill-opacity:1;stroke:#000000;stroke-width:0;stroke-opacity:1"
   d="m 158.79,697.3 h 0.05 0.04 0.02 0.02 0.02 0.03 l 0.02,0.01 h 0.02 l 0.02,0.01 h 0.02 l 0.02,0.01 0.01,0.01 0.02,0.01 0.02,0.01 0.02,0.01 0.01,0.01 0.02,0.02 0.01,0.01 0.02,0.02 v 0.01 l 0.01,0.01 v 0.01 l 0.01,0.01 0.01,0.01 v 0.01 l 0.01,0.02 v 0.01 0.01 l 0.01,0.01 v 0.02 l 0.01,0.01 v 0.02 0.02 0.01 l 0.01,0.02 v 0.02 0.01 0.02 0.02 0.02 0.02 c 0,1.28 -0.59,2.14 -2.08,2.14 -1.6,0 -2.39,-0.9 -2.39,-2.41 0,-1.63 0.95,-2.42 2.52,-2.42 0.38,0 0.95,0.05 1.6,0.38 0.22,0.11 0.29,0.14 0.29,0.26 0,0.07 -0.03,0.35 -0.04,0.43 -0.04,0.31 -0.05,0.32 -0.14,0.32 -0.04,0 -0.06,0 -0.17,-0.1 -0.58,-0.51 -1.18,-0.57 -1.5,-0.57 -1.13,0 -1.25,0.88 -1.28,1.52 l 0.01,0.52 c 0.03,0.61 0.23,1.35 1.1,1.35 0.8,0 0.95,-0.57 0.98,-1.35 h -2.08 l -0.01,-0.52 z"
   inkscape:connector-curvature="0" />
<path
   id="path1176"
   style="fill:#000000;fill-opacity:1;stroke:#000000;stroke-width:0;stroke-opacity:1"
   d="m 164.21,698.31 v 0.07 0.07 0.07 l -0.01,0.07 -0.01,0.06 -0.01,0.06 -0.02,0.06 -0.01,0.06 -0.02,0.05 -0.02,0.06 -0.02,0.05 -0.02,0.05 -0.02,0.05 -0.03,0.04 -0.02,0.05 -0.03,0.04 -0.03,0.04 -0.03,0.04 -0.03,0.04 -0.03,0.03 -0.07,0.07 -0.07,0.06 -0.08,0.05 -0.07,0.05 -0.08,0.05 -0.09,0.04 -0.08,0.03 -0.08,0.03 -0.09,0.03 -0.08,0.02 -0.09,0.02 -0.08,0.02 -0.08,0.01 -0.08,0.01 -0.08,0.01 -0.08,0.01 h -0.07 l -0.07,0.01 h -0.06 -0.06 -0.06 -0.05 c -0.47,0 -0.97,-0.04 -1.63,-0.32 -0.21,-0.09 -0.26,-0.12 -0.26,-0.23 0,-0.07 0.06,-0.64 0.07,-0.72 0.01,-0.06 0.06,-0.11 0.13,-0.11 0.04,0 0.08,0.03 0.11,0.06 0.42,0.44 0.92,0.66 1.54,0.66 0.54,0 0.7,-0.32 0.7,-0.91 v -0.35 -0.41 -0.86 c 0,-0.92 -0.95,-0.92 -0.98,-0.92 -0.42,0 -0.69,0.35 -0.69,0.73 0,0.97 1.39,1.04 1.67,1.05 v 0.41 c -0.35,0 -2.96,-0.02 -2.96,-1.48 0,-0.69 0.56,-1.43 1.43,-1.43 0.34,0 1.09,0.1 1.56,0.78 v -0.19 c 0,-0.32 0.07,-0.48 0.48,-0.48 h 0.37 c 0.38,0 0.47,0.13 0.47,0.48 z"
   inkscape:connector-curvature="0" />
<path
   id="path1178"
   style="fill:#000000;fill-opacity:1;stroke:#000000;stroke-width:0;stroke-opacity:1"
   d="m 166.44,697.46 0.01,0.08 v 0.09 l 0.01,0.08 0.02,0.07 0.02,0.08 0.02,0.07 0.03,0.07 0.03,0.06 0.03,0.06 0.04,0.06 0.03,0.06 0.05,0.05 0.04,0.05 0.05,0.05 0.05,0.05 0.05,0.04 0.05,0.04 0.05,0.04 0.06,0.03 0.06,0.03 0.05,0.03 0.06,0.03 0.06,0.03 0.06,0.02 0.06,0.02 0.07,0.02 0.06,0.01 0.06,0.01 0.06,0.02 h 0.06 l 0.06,0.01 0.06,0.01 c 0.18,0.01 0.2,0.01 0.2,0.26 v 0.47 c 0,0.2 0,0.27 -0.18,0.27 -0.28,0 -1.01,-0.1 -1.48,-1.17 h -0.01 v 0.64 c 0,0.32 -0.07,0.48 -0.47,0.48 h -0.32 c -0.36,0 -0.48,-0.11 -0.48,-0.48 v -3.65 c 0,-0.36 0.11,-0.48 0.48,-0.48 h 0.37 c 0.37,0 0.47,0.13 0.47,0.48 z"
   inkscape:connector-curvature="0" />
<path
   id="path1180"
   style="fill:#000000;fill-opacity:1;stroke:#000000;stroke-width:0;stroke-opacity:1"
   d="m 173.2,698.4 v 0.09 0.09 l -0.01,0.09 -0.01,0.08 -0.01,0.08 -0.01,0.08 -0.02,0.07 -0.02,0.07 -0.02,0.07 -0.03,0.06 -0.03,0.06 -0.03,0.06 -0.03,0.05 -0.04,0.06 -0.04,0.04 -0.04,0.05 -0.05,0.04 -0.05,0.04 -0.05,0.03 -0.05,0.04 -0.06,0.03 -0.06,0.02 -0.07,0.03 -0.07,0.02 -0.07,0.02 -0.07,0.01 -0.08,0.02 -0.08,0.01 -0.08,0.01 h -0.09 l -0.09,0.01 h -0.09 c -1.05,0 -1.5,-0.76 -1.63,-1.02 h -0.01 v 0.49 c 0,0.32 -0.07,0.48 -0.48,0.48 h -0.34 c -0.35,0 -0.47,-0.11 -0.47,-0.48 v -3.65 c 0,-0.36 0.11,-0.48 0.47,-0.48 h 0.4 c 0.38,0 0.48,0.13 0.48,0.48 v 2.19 c 0,0.87 0.58,1.27 1.1,1.27 0.48,0 0.58,-0.22 0.58,-0.73 v -2.73 c 0,-0.32 0.07,-0.48 0.48,-0.48 h 0.4 c 0.37,0 0.47,0.13 0.47,0.48 z"
   inkscape:connector-curvature="0" />
<path
   id="path1182"
   style="fill:#000000;fill-opacity:1;stroke:#000000;stroke-width:0;stroke-opacity:1"
   d="m 174.82,702.07 h -0.02 -0.03 -0.03 -0.03 -0.02 -0.03 l -0.02,-0.01 h -0.02 l -0.03,-0.01 h -0.02 l -0.02,-0.01 -0.02,-0.01 h -0.01 l -0.02,-0.01 -0.02,-0.01 -0.01,-0.02 -0.02,-0.01 -0.01,-0.01 -0.01,-0.02 -0.02,-0.01 -0.01,-0.02 -0.01,-0.02 -0.01,-0.02 v -0.02 l -0.01,-0.03 -0.01,-0.02 v -0.03 -0.01 l -0.01,-0.02 v -0.01 -0.02 -0.02 -0.01 -0.02 -0.02 -0.01 -0.02 -0.46 c 0,-0.32 0.1,-0.45 0.47,-0.45 h 0.51 c 0.48,0 0.48,0.21 0.48,0.68 0,0.47 0,0.68 -0.48,0.68 z"
   inkscape:connector-curvature="0" />
<path
   id="path1184"
   style="fill:#000000;fill-opacity:1;stroke:#000000;stroke-width:0;stroke-opacity:1"
   d="m 175.74,699.24 v 0.03 0.03 0.03 0.02 0.03 l -0.01,0.03 v 0.02 l -0.01,0.02 v 0.02 l -0.01,0.02 v 0.02 l -0.01,0.02 -0.01,0.02 -0.01,0.02 -0.01,0.02 -0.01,0.01 -0.02,0.02 -0.01,0.01 -0.02,0.01 -0.02,0.01 -0.01,0.01 -0.02,0.01 -0.03,0.01 -0.02,0.01 -0.02,0.01 h -0.03 l -0.03,0.01 h -0.03 -0.01 l -0.02,0.01 h -0.02 -0.01 -0.02 -0.02 -0.02 -0.02 -0.36 c -0.36,0 -0.48,-0.11 -0.48,-0.48 v -3.59 c 0,-0.36 0.11,-0.48 0.48,-0.48 h 0.36 c 0.38,0 0.48,0.13 0.48,0.48 z"
   inkscape:connector-curvature="0" />
<path
   id="path1186"
   style="fill:#000000;fill-opacity:1;stroke:#000000;stroke-width:0;stroke-opacity:1"
   d="m 181.34,698.4 v 0.09 l -0.01,0.09 v 0.09 l -0.01,0.08 -0.01,0.08 -0.02,0.08 -0.01,0.07 -0.02,0.07 -0.03,0.07 -0.02,0.06 -0.03,0.06 -0.03,0.06 -0.04,0.05 -0.03,0.06 -0.04,0.04 -0.05,0.05 -0.04,0.04 -0.05,0.04 -0.05,0.03 -0.06,0.04 -0.06,0.03 -0.06,0.02 -0.06,0.03 -0.07,0.02 -0.07,0.02 -0.07,0.01 -0.08,0.02 -0.08,0.01 -0.09,0.01 h -0.08 l -0.09,0.01 h -0.1 c -1.04,0 -1.49,-0.76 -1.62,-1.02 h -0.01 v 0.49 c 0,0.32 -0.07,0.48 -0.48,0.48 h -0.34 c -0.36,0 -0.48,-0.11 -0.48,-0.48 v -3.65 c 0,-0.36 0.11,-0.48 0.48,-0.48 h 0.4 c 0.38,0 0.48,0.13 0.48,0.48 v 2.19 c 0,0.87 0.58,1.27 1.1,1.27 0.47,0 0.57,-0.22 0.57,-0.73 v -2.73 c 0,-0.32 0.07,-0.48 0.48,-0.48 h 0.4 c 0.38,0 0.48,0.13 0.48,0.48 z"
   inkscape:connector-curvature="0" />
<path
   id="path1188"
   style="fill:#000000;fill-opacity:1;stroke:#000000;stroke-width:0;stroke-opacity:1"
   d="m 183.94,696.08 h -0.03 -0.04 -0.03 -0.03 -0.02 -0.03 l -0.03,0.01 h -0.02 -0.03 -0.02 -0.02 -0.02 -0.02 -0.02 l -0.02,0.01 h -0.02 -0.02 l -0.02,0.01 h -0.01 -0.02 l -0.02,0.01 h -0.01 l -0.02,0.01 h -0.01 l -0.02,0.01 -0.01,0.01 -0.01,0.01 h -0.02 l -0.01,0.01 -0.01,0.01 -0.02,0.01 -0.01,0.01 c -0.04,0.04 -0.21,0.19 -0.21,0.45 0,0.07 0.01,0.09 0.02,0.15 0.47,-0.26 1.06,-0.26 1.27,-0.26 v 0.72 c -0.7,0 -0.73,0.37 -0.73,0.92 0,0.55 0.03,0.93 0.73,0.93 0.69,0 0.72,-0.37 0.72,-0.92 0,-0.55 -0.03,-0.93 -0.72,-0.93 v 0 -0.72 c 0.42,0 2,0 2,1.64 0,0.58 -0.22,0.92 -0.31,1.03 0.17,0 0.52,0 0.93,-0.11 0.04,-0.02 0.11,-0.04 0.14,-0.04 0.08,0 0.13,0.06 0.13,0.13 0,0.04 -0.05,0.28 -0.07,0.38 -0.04,0.24 -0.04,0.26 -0.22,0.26 -0.31,0 -0.81,-0.12 -1.19,-0.35 -0.47,0.31 -0.98,0.35 -1.41,0.35 -0.42,0 -2.01,0 -2.01,-1.64 0,-0.4 0.11,-0.89 0.49,-1.22 -0.27,-0.37 -0.27,-0.76 -0.27,-0.81 0,-0.19 0.06,-0.51 0.27,-0.78 -0.15,-0.06 -0.67,-0.24 -0.67,-0.88 0,-0.3 0.15,-0.82 0.78,-1.11 0.57,-0.26 1.24,-0.27 1.71,-0.27 l 0.01,0.72 c -0.4,0 -1.47,0 -1.47,0.69 0,0.47 0.31,0.47 0.54,0.47 h 1.16 c 0.8,0 1.22,-0.14 1.22,-0.5 0,-0.66 -1.13,-0.66 -1.45,-0.66 l -0.01,-0.72 c 0.58,0 2.49,0 2.49,1.41 0,1.55 -1.41,1.55 -2.75,1.55 z"
   inkscape:connector-curvature="0" />
</g></svg>
